{
  "": {
    "mode": "40700"
  },
  ".disk": {
    "mode": "40700"
  },
  ".disk/archive_trace": {
    "hash": "01ba4719c80b6fe911b091a7c05124b64eeece964e09c058ef8f9805daca546b",
    "mode": "100700"
  },
  ".disk/info": {
    "hash": "579813adcf425295ba3ed98adc0e9cfff464bfca958547f5c2cfff428eeea8aa",
    "mode": "100700"
  },
  "EFI": {
    "mode": "40700"
  },
  "EFI/BOOT": {
    "mode": "40700"
  },
  "EFI/BOOT/bootia32.efi": {
    "hash": "236b0e62884c97fd2e8cb6ab1f05970410cc5a9340f4e6e94533683b7e9c381a",
    "mode": "100700"
  },
  "EFI/BOOT/bootx64.efi": {
    "hash": "ec93b2abebe87bc124e226a1f832f1f80f19645d13a5e6930e294c8fe07f27d5",
    "mode": "100700"
  },
  "EFI/BOOT/bootx64.png": {
    "hash": "c21d398d8472dbcc043bebc360cea83b1fb8a20011d9198fdc8272d8a86fa467",
    "mode": "100700"
  },
  "EFI/BOOT/cat.c32": {
    "hash": "4fa5997e70019f748954656ade795fe2c2819e09ece036eb7beed2a00ca2209b",
    "mode": "100700"
  },
  "EFI/BOOT/chain.c32": {
    "hash": "f9a5ae27292523567458d370ec6988cb097d972c9ca8e59708714a5e85715b4e",
    "mode": "100700"
  },
  "EFI/BOOT/cmd.c32": {
    "hash": "db9645a8f828d2fe083fc3c224121a34399f3138e99bf71fcac61d234d04554e",
    "mode": "100700"
  },
  "EFI/BOOT/cmenu.c32": {
    "hash": "0fcb1c32b8ecd795607116f2326e67a7003ec346dedb0d4fc15de331015f7106",
    "mode": "100700"
  },
  "EFI/BOOT/config.c32": {
    "hash": "eeef4ea83284adcd3bf85a1c602dd8673b88739188dfcfc61dff48339e83599c",
    "mode": "100700"
  },
  "EFI/BOOT/cptime.c32": {
    "hash": "65943e992246fdde176522fe96d3de40e094b9379dfdbbf96c3d09f6699ad285",
    "mode": "100700"
  },
  "EFI/BOOT/cpu.c32": {
    "hash": "7162211cb8341b8598ac9db2754d7b48d116ed89d70779e8caf5284dbecd7c1c",
    "mode": "100700"
  },
  "EFI/BOOT/cpuid.c32": {
    "hash": "24d06defb7b2087936d50e5473bd450a4b3c39cc429b3ff67a19bd040f35e5aa",
    "mode": "100700"
  },
  "EFI/BOOT/cpuidtest.c32": {
    "hash": "1499fc45efa630deb52f83f8f872e5a9875ed542b9498de876a1c0759f15090f",
    "mode": "100700"
  },
  "EFI/BOOT/debug.c32": {
    "hash": "f5a3bc480f163788c1f1a5ab6cfe8539c1fa7be6647092f078bf7970d3909a2a",
    "mode": "100700"
  },
  "EFI/BOOT/dhcp.c32": {
    "hash": "7afb34812bd93ac1f19ef2c6f31458da0dcc77fb6049334d63d7afa3586ed06d",
    "mode": "100700"
  },
  "EFI/BOOT/disk.c32": {
    "hash": "6f334892e7848d9f46e2057fa29ea944d0b4e3bcc97ebc9bd197dd1d8d5a7ee0",
    "mode": "100700"
  },
  "EFI/BOOT/dmi.c32": {
    "hash": "ccfd8ee81c5724bb51db0e65279691e39b28b6fec055bef7ecbe2899e33e79cb",
    "mode": "100700"
  },
  "EFI/BOOT/dmitest.c32": {
    "hash": "b79c4cc561963cb3c4499081d72857a98a9edb40017752702050e9b19b3c9845",
    "mode": "100700"
  },
  "EFI/BOOT/elf.c32": {
    "hash": "692996a8abd0db15ce429c18d12fe79d0a26dfa4885dfcc789482f7aec0efaf5",
    "mode": "100700"
  },
  "EFI/BOOT/ethersel.c32": {
    "hash": "8ecb82e2d71570b05c8efd31dc361a3a0d638ae27bd5820563cf90a8f0be77ff",
    "mode": "100700"
  },
  "EFI/BOOT/f1.txt": {
    "hash": "f6a0c64cd46caec2a05ea2f7a389926d123930372db359332fa41c11b47b9412",
    "mode": "100700"
  },
  "EFI/BOOT/f10.txt": {
    "hash": "f00c82a22bd2a4d9b36749dee83f8b3b23b607944e25dd4a36a1a51eeb736c51",
    "mode": "100700"
  },
  "EFI/BOOT/f2.txt": {
    "hash": "605fdec56281a4eedb1e98090c60daeb1db593701070e3bdb84d6961d0431a20",
    "mode": "100700"
  },
  "EFI/BOOT/f3.txt": {
    "hash": "014b28b4654d29b3da09b3a7f2da76b32bff60120ae62e4036d66360a1fadaa1",
    "mode": "100700"
  },
  "EFI/BOOT/f4.txt": {
    "hash": "184e3ebbed1d06debc64a932244df7ed45ff45d7ec357113bee5182c64920170",
    "mode": "100700"
  },
  "EFI/BOOT/f5.txt": {
    "hash": "09f4d88e269b23129c004dfb382c8d899f2c3644b0961b4273a2bb453b4d24ab",
    "mode": "100700"
  },
  "EFI/BOOT/f6.txt": {
    "hash": "8506e93159c8a5efdd8d0c7cbbbe7f633854b0377cb875c1a50898ce3ce7e816",
    "mode": "100700"
  },
  "EFI/BOOT/f7.txt": {
    "hash": "92659653110ae196c988cc4db1c5ffb9f3a4a7206ba58846efa8f30d9571eda3",
    "mode": "100700"
  },
  "EFI/BOOT/f8.txt": {
    "hash": "0fa068a91b96048f70c5d53060d0673ab4eb815c712317363f87901900eb01d9",
    "mode": "100700"
  },
  "EFI/BOOT/f9.txt": {
    "hash": "137c16870940e20edb3dbf5c425520cadf361974b763086948cff7b7df62a8ed",
    "mode": "100700"
  },
  "EFI/BOOT/gfxboot.c32": {
    "hash": "03ecb572a2dfab969a9359adce49c8d0943e3dd99b63f56ecfe22838a78dd253",
    "mode": "100700"
  },
  "EFI/BOOT/gpxecmd.c32": {
    "hash": "2b87751639528f3e572e3c786cd1a890b1f7f58a1f540c0edac92592eb747586",
    "mode": "100700"
  },
  "EFI/BOOT/grub": {
    "mode": "40700"
  },
  "EFI/BOOT/grub/grub.cfg": {
    "hash": "da6a5fccd75f90fea856ef950799853cedc55c7840bf47d7cddfa9be37cd82f4",
    "mode": "100700"
  },
  "EFI/BOOT/grub/i386-efi": {
    "mode": "40700"
  },
  "EFI/BOOT/grub/i386-efi/acpi.mod": {
    "hash": "4fd0c05feeab1915cc21d47a846a814c377bfa03aae4e4a8270c5c1c25a0f2ba",
    "mode": "100700"
  },
  "EFI/BOOT/grub/i386-efi/adler32.mod": {
    "hash": "c0c9f75278877bbd15557d99c2f5543b5f0bd8c59ad3fd2b2bc1a7ab82379707",
    "mode": "100700"
  },
  "EFI/BOOT/grub/i386-efi/ahci.mod": {
    "hash": "5bc8a8e31ba3c3ba12ec8713decb8720318e56fd64dac7b345a51d792ca177fd",
    "mode": "100700"
  },
  "EFI/BOOT/grub/i386-efi/all_video.mod": {
    "hash": "08be6d97264f8a8f6212c51430e724d924b5c34a18a40ec74bdf1194dbd03b74",
    "mode": "100700"
  },
  "EFI/BOOT/grub/i386-efi/aout.mod": {
    "hash": "2559609272c00678d5c8dbab3f21bf794a458cbb8656aeb71316c9669a29e368",
    "mode": "100700"
  },
  "EFI/BOOT/grub/i386-efi/appleldr.mod": {
    "hash": "8ff8015ea4f85eaa8ac6640d2b6126b985499a33c48e65e3cee94e57e5a08a22",
    "mode": "100700"
  },
  "EFI/BOOT/grub/i386-efi/archelp.mod": {
    "hash": "1dc42a326d7b11c4d69e8764358b88d3455c0d6d138097bca1116139c2c245cc",
    "mode": "100700"
  },
  "EFI/BOOT/grub/i386-efi/at_keyboard.mod": {
    "hash": "608195519b920631cb7d96fb5a6f1dfb946c07787f0d582d85b450094287bb3f",
    "mode": "100700"
  },
  "EFI/BOOT/grub/i386-efi/ata.mod": {
    "hash": "1ac835345e88fcf69c112cc8bd8c143b994802efc9968f08e71fc9d1b9f1f2ad",
    "mode": "100700"
  },
  "EFI/BOOT/grub/i386-efi/backtrace.mod": {
    "hash": "33b32a4dbbd7fc1b5b508e9904bd8cfbdafbe7e931429ff628d00e76c7f27123",
    "mode": "100700"
  },
  "EFI/BOOT/grub/i386-efi/bfs.mod": {
    "hash": "674c55ed5d5cd8f319ec76e6d50267403775e8b625bd52ddcff94d518fb3e0f0",
    "mode": "100700"
  },
  "EFI/BOOT/grub/i386-efi/bitmap.mod": {
    "hash": "fe5bbfb15b697764d9430550eb6d9adc044d1ed1898d1271d6b2143afab2b490",
    "mode": "100700"
  },
  "EFI/BOOT/grub/i386-efi/bitmap_scale.mod": {
    "hash": "2403927621681a4eea7b8510aaf188953ee3fc79775da94f9240869658de302d",
    "mode": "100700"
  },
  "EFI/BOOT/grub/i386-efi/blocklist.mod": {
    "hash": "9ea2eafea43bff65d148561d9a4cf9e23f7ffc63cfa69249752343599bf4f0a5",
    "mode": "100700"
  },
  "EFI/BOOT/grub/i386-efi/boot.mod": {
    "hash": "c5b01207d4832723439834937a00e5543fd9614e6d56f55898b253276254e4b1",
    "mode": "100700"
  },
  "EFI/BOOT/grub/i386-efi/bsd.mod": {
    "hash": "d3ad522cdd76008c3d53514db9ea8af628f64fadc638dc97609d78190b704a8b",
    "mode": "100700"
  },
  "EFI/BOOT/grub/i386-efi/btrfs.mod": {
    "hash": "f9b32c4c92c386a4bd46c11319b3900a89cdbeee6586e4c58d08ea584eccf06e",
    "mode": "100700"
  },
  "EFI/BOOT/grub/i386-efi/bufio.mod": {
    "hash": "ba310e798fdd3e58befd68ad2ecaa150a715eb5604828c4d8f015426374384f1",
    "mode": "100700"
  },
  "EFI/BOOT/grub/i386-efi/cat.mod": {
    "hash": "20b367c904dda6165e9ae2c8303a102fb1468f2522ac4a29ec727a797ff8f429",
    "mode": "100700"
  },
  "EFI/BOOT/grub/i386-efi/cbfs.mod": {
    "hash": "b7b0139c49e6518a027cbc48046f0177594a89badb001707bf4b2b1bc23a0cbf",
    "mode": "100700"
  },
  "EFI/BOOT/grub/i386-efi/cbls.mod": {
    "hash": "8309a54928cad1c35d8099b38010cf80c05495d9c4ac7f9fc26dd76c89d6e699",
    "mode": "100700"
  },
  "EFI/BOOT/grub/i386-efi/cbmemc.mod": {
    "hash": "7d1a665abcdbd25233ced037e25d2b16abb43ca9412976e6a86c23266bb505b0",
    "mode": "100700"
  },
  "EFI/BOOT/grub/i386-efi/cbtable.mod": {
    "hash": "175bc0de62e7bf5bf6efacbf16576b894b03bf0c54f91037d386e517ef272bdd",
    "mode": "100700"
  },
  "EFI/BOOT/grub/i386-efi/cbtime.mod": {
    "hash": "fc3ba0e453fc2ee8bb580300bd56544b89d5844f61c62aa5bedc682ae53fafd4",
    "mode": "100700"
  },
  "EFI/BOOT/grub/i386-efi/chain.mod": {
    "hash": "ec9be1676c96a744b9b586c65efc441521af6f525b02bf9b8105473f2052951c",
    "mode": "100700"
  },
  "EFI/BOOT/grub/i386-efi/cmdline_cat_test.mod": {
    "hash": "745d5b58f40e57a22a3d3f4563795a1964905e749324058df389a266eb03b96a",
    "mode": "100700"
  },
  "EFI/BOOT/grub/i386-efi/cmp.mod": {
    "hash": "41bf7f89d391fc1d90479fbc12dc51555eb8fb1e916805e870b1d0b4a73e2da0",
    "mode": "100700"
  },
  "EFI/BOOT/grub/i386-efi/command.lst": {
    "hash": "2a8f3a51d9af0a3c6973ffbee773fec6ced7c4144cfc3dc9830b9343547064f0",
    "mode": "100700"
  },
  "EFI/BOOT/grub/i386-efi/cpio.mod": {
    "hash": "fdc788b3504b0add34567c0443db28c01d2c50e98eb2abfd2113663c597e634d",
    "mode": "100700"
  },
  "EFI/BOOT/grub/i386-efi/cpio_be.mod": {
    "hash": "d62fbf6ebfaff074d11087426fd72b7dcdf9f2165270f46cf5657e49ab23c6a6",
    "mode": "100700"
  },
  "EFI/BOOT/grub/i386-efi/cpuid.mod": {
    "hash": "995ce99a3dc05078e8ed622386960fc2122586a2ee57fb9f96c2df80ef47270c",
    "mode": "100700"
  },
  "EFI/BOOT/grub/i386-efi/crc64.mod": {
    "hash": "df54c15270dcb4606045c90c5a3ae635325035a4ba34f60a7b8260ad7af9227f",
    "mode": "100700"
  },
  "EFI/BOOT/grub/i386-efi/crypto.lst": {
    "hash": "1b766f38a94927fe9b7bc1e809f0363e778e14c601e800faea271a2e75d3fc43",
    "mode": "100700"
  },
  "EFI/BOOT/grub/i386-efi/crypto.mod": {
    "hash": "db14c655e92b1dad32f2f8175e8ea1717dab2ce98c3aa1695e57292f8b6137a6",
    "mode": "100700"
  },
  "EFI/BOOT/grub/i386-efi/cryptodisk.mod": {
    "hash": "e194300b5dee8c78994a2520063a8874598955da7a5f2b7d5fcbd286f535841e",
    "mode": "100700"
  },
  "EFI/BOOT/grub/i386-efi/cs5536.mod": {
    "hash": "1f9ef54c32cc3ca81ceed2fa4fd86c9767e12e5ad3b8758291b7a66d7afd3b8d",
    "mode": "100700"
  },
  "EFI/BOOT/grub/i386-efi/date.mod": {
    "hash": "96dfcf61c5202d7e0ae644ce478754110566cb80a0e818f3ad83acbb43f022f0",
    "mode": "100700"
  },
  "EFI/BOOT/grub/i386-efi/datehook.mod": {
    "hash": "07b267e29de8d226d0d88f54971e1f8beec4ae6722c18820fa463d84ef0c81d7",
    "mode": "100700"
  },
  "EFI/BOOT/grub/i386-efi/datetime.mod": {
    "hash": "99f8d7ba9879f8b3ef8c684dc21bf7c91ad48361b72444027ac79966e108ddbe",
    "mode": "100700"
  },
  "EFI/BOOT/grub/i386-efi/disk.mod": {
    "hash": "3d998956f7121f939dc7a2670ef2f2e53e4083282fe4d218594820637bab1820",
    "mode": "100700"
  },
  "EFI/BOOT/grub/i386-efi/diskfilter.mod": {
    "hash": "8bec7594e1251f7de18c2cdb8d43c57abe222554d5cf1dd3051d11c6ec6e26b3",
    "mode": "100700"
  },
  "EFI/BOOT/grub/i386-efi/div_test.mod": {
    "hash": "84096782f5dc96c8c6f2b74aa03b2959ebfb9dab9fa733be0525e7affc77d49f",
    "mode": "100700"
  },
  "EFI/BOOT/grub/i386-efi/dm_nv.mod": {
    "hash": "72a46c78b3cb4ef16da8a85aabc425a0118b7d261e3bd9a9c892f1819fc66c9d",
    "mode": "100700"
  },
  "EFI/BOOT/grub/i386-efi/echo.mod": {
    "hash": "3bd225af6d3ec92db8c6c90f7974896b04c3d25b44eff07fcff4bf874fbd2fc5",
    "mode": "100700"
  },
  "EFI/BOOT/grub/i386-efi/efi_gop.mod": {
    "hash": "c435546fe90ddbc8f8d491079be5d2887a957579416ec5bfd4aeecadcdfbb6a7",
    "mode": "100700"
  },
  "EFI/BOOT/grub/i386-efi/efi_uga.mod": {
    "hash": "6355867781f8dbcd37769d8b54181c2c11d76b97722a5cfd13e838a240bc3e36",
    "mode": "100700"
  },
  "EFI/BOOT/grub/i386-efi/efifwsetup.mod": {
    "hash": "a9662d4719891a0fddbd8b15d304a48d90c1e062f711a2f905af6ff4ee6fb2bd",
    "mode": "100700"
  },
  "EFI/BOOT/grub/i386-efi/efinet.mod": {
    "hash": "ce9227fe5bddc157701521ff21e442ccd7cf3261f3178956d8554b72d8f376e5",
    "mode": "100700"
  },
  "EFI/BOOT/grub/i386-efi/ehci.mod": {
    "hash": "038135c1e4cc3db3a7070b8f2315c6cd31e21882e38bfcdb2c70b4d2ffd299e2",
    "mode": "100700"
  },
  "EFI/BOOT/grub/i386-efi/elf.mod": {
    "hash": "f6641131e4d4872cab348d12eb46f05352c3d84e78a4655ab1f737a7aadb349d",
    "mode": "100700"
  },
  "EFI/BOOT/grub/i386-efi/eval.mod": {
    "hash": "bdcee9480d16329d964f67cdd6174599a3fdc71e74bb38718c4a1da6c3f3d493",
    "mode": "100700"
  },
  "EFI/BOOT/grub/i386-efi/exfat.mod": {
    "hash": "802bd8d1fe98069715d11f6e974ad2cebd2550578faee81ed3418826e5706309",
    "mode": "100700"
  },
  "EFI/BOOT/grub/i386-efi/exfctest.mod": {
    "hash": "8cd6e9691ea2b6d9dafa36dfbf6f780819ee3649b6050ef1f36bacc27660ae6c",
    "mode": "100700"
  },
  "EFI/BOOT/grub/i386-efi/ext2.mod": {
    "hash": "5c682762899a880bea9655e29a4a6e25770ff642b6cda537a1cb85b30940dff1",
    "mode": "100700"
  },
  "EFI/BOOT/grub/i386-efi/extcmd.mod": {
    "hash": "fb3b3640a84d41b0ad23414cb3452d7a435dfd5d9df19a94d606bb19976fb86a",
    "mode": "100700"
  },
  "EFI/BOOT/grub/i386-efi/fat.mod": {
    "hash": "0db9f598e283c45063248ce425a1df0fddc9a3e872be6ec0e39a98e25587c18d",
    "mode": "100700"
  },
  "EFI/BOOT/grub/i386-efi/file.mod": {
    "hash": "99702ed113a696de1524a2ac1933845e3d3249a41ce7e6d2859c537edf37b403",
    "mode": "100700"
  },
  "EFI/BOOT/grub/i386-efi/fixvideo.mod": {
    "hash": "663768caed113c46d8ef5d8fd46bf3d8ab45d90821d5882f42cf42686cd94883",
    "mode": "100700"
  },
  "EFI/BOOT/grub/i386-efi/font.mod": {
    "hash": "609966085945f9952be64f24ef3f8c4f6263a7ba8e7de7e37ec49726f4d99f1f",
    "mode": "100700"
  },
  "EFI/BOOT/grub/i386-efi/fs.lst": {
    "hash": "49e674290325ee0a73f1ab03b89f59568eaa2f8aacbe0b2cc76e705548172d8f",
    "mode": "100700"
  },
  "EFI/BOOT/grub/i386-efi/fshelp.mod": {
    "hash": "78348e04ccfa6087997135f4039a4df0e766cde9eec7c0b52e2e72ea8bdcb48a",
    "mode": "100700"
  },
  "EFI/BOOT/grub/i386-efi/gcry_arcfour.mod": {
    "hash": "b1d8a08f9a91a037533e0ed65c7b94982486e20aab99e625bb8e441dbb6421b9",
    "mode": "100700"
  },
  "EFI/BOOT/grub/i386-efi/gcry_blowfish.mod": {
    "hash": "a0ff15fa0b8f84a5450610cd0d608c2fe16d364a34319e2848643c292d042678",
    "mode": "100700"
  },
  "EFI/BOOT/grub/i386-efi/gcry_camellia.mod": {
    "hash": "4340200d2571fbfdbbf60b9e68d6fdabd9a9d20ecc97e62a1e5e887a3abae0de",
    "mode": "100700"
  },
  "EFI/BOOT/grub/i386-efi/gcry_cast5.mod": {
    "hash": "3f46d068991ca3a7f088539653349ba936bdad4d486ba5bcce48f0143454cc84",
    "mode": "100700"
  },
  "EFI/BOOT/grub/i386-efi/gcry_crc.mod": {
    "hash": "3757be70c6d1ec2fe5cb0243839fe4d28d67cd22d00d784f2d60bfb4b0587cd3",
    "mode": "100700"
  },
  "EFI/BOOT/grub/i386-efi/gcry_des.mod": {
    "hash": "413f3671f273c23de20e45491d2ff1c10caea799ae7e1fc61ad78af244019f52",
    "mode": "100700"
  },
  "EFI/BOOT/grub/i386-efi/gcry_dsa.mod": {
    "hash": "f8305644ec8bd3ef02e612b0ab1e7f11fac188643a65193bb46503916bc192f3",
    "mode": "100700"
  },
  "EFI/BOOT/grub/i386-efi/gcry_idea.mod": {
    "hash": "d806d8043f4607f2f135af57b736187538e2ac5174f749b17f026352d2c33772",
    "mode": "100700"
  },
  "EFI/BOOT/grub/i386-efi/gcry_md4.mod": {
    "hash": "77f898f726259ae2464577f4a594b491e7086227fb59727a33f2b060e008e66e",
    "mode": "100700"
  },
  "EFI/BOOT/grub/i386-efi/gcry_md5.mod": {
    "hash": "d38c4715203728572f6af6f05d12e22bcc171ba15faf694e8080775d0c6ab5dd",
    "mode": "100700"
  },
  "EFI/BOOT/grub/i386-efi/gcry_rfc2268.mod": {
    "hash": "d38ae24034d96a3083005b2e309889c3248f27f33a194094ec373c25e5bc90cc",
    "mode": "100700"
  },
  "EFI/BOOT/grub/i386-efi/gcry_rijndael.mod": {
    "hash": "8f62547c2c40882954d2c3430c754e1b3f9bcb45890e6d9f59b370f7fe6766ff",
    "mode": "100700"
  },
  "EFI/BOOT/grub/i386-efi/gcry_rmd160.mod": {
    "hash": "f9dda55aada4b5dad27426b216d92ad79a68351aaf67067ef9805904dbf05fe2",
    "mode": "100700"
  },
  "EFI/BOOT/grub/i386-efi/gcry_rsa.mod": {
    "hash": "2d680caf6feac7da461451815b5adae5039f425d903cced27fadc3f22dcabad7",
    "mode": "100700"
  },
  "EFI/BOOT/grub/i386-efi/gcry_seed.mod": {
    "hash": "0fe7b6f3a97ed1ea49a569138d86fbb92abedc9b42a3688c36249b8dd8a047cd",
    "mode": "100700"
  },
  "EFI/BOOT/grub/i386-efi/gcry_serpent.mod": {
    "hash": "97bf6c20d627c8cd2e04410e43bd978c8c88baa7b27735682d09f8c3f0403b82",
    "mode": "100700"
  },
  "EFI/BOOT/grub/i386-efi/gcry_sha1.mod": {
    "hash": "4e97e5463a4931120433b38dd8c63ed2b6855d3b9a007ec97f3e4aa14d1adbf1",
    "mode": "100700"
  },
  "EFI/BOOT/grub/i386-efi/gcry_sha256.mod": {
    "hash": "17661b9ec545dd06f52629dfd7b24d18fb714bba2beb4c35ea9f77fe9a42100c",
    "mode": "100700"
  },
  "EFI/BOOT/grub/i386-efi/gcry_sha512.mod": {
    "hash": "2e7a6c8d0f41fa7f622bb88c848b21e50e1e22f84ea2da5281db675d03d542a0",
    "mode": "100700"
  },
  "EFI/BOOT/grub/i386-efi/gcry_tiger.mod": {
    "hash": "0e0bfd6157106dc2d33f6fe88985e510cba47964f3e2ad90e229fb0f6185b4a4",
    "mode": "100700"
  },
  "EFI/BOOT/grub/i386-efi/gcry_twofish.mod": {
    "hash": "d476dca3ea135c005de5f0de99bd6c79aa9b0de0cf8c18b39a2381c3165985fa",
    "mode": "100700"
  },
  "EFI/BOOT/grub/i386-efi/gcry_whirlpool.mod": {
    "hash": "ed1ad9463c2324a2139f35637c0d93e18f86b103bdc5e0f78c0796753afd3af5",
    "mode": "100700"
  },
  "EFI/BOOT/grub/i386-efi/gdb.mod": {
    "hash": "7ee4afc0ae33319499237b1a5effe11b1ef88e0597281b89edad3fea57c9d607",
    "mode": "100700"
  },
  "EFI/BOOT/grub/i386-efi/geli.mod": {
    "hash": "b59956d266478786fd0389560baffc04c3364fa615205418e2128c31bff0bdb8",
    "mode": "100700"
  },
  "EFI/BOOT/grub/i386-efi/gettext.mod": {
    "hash": "9630ad83b5a87c8e9b7a29a42c966eba9b09508ab9363648c187323db9086c9e",
    "mode": "100700"
  },
  "EFI/BOOT/grub/i386-efi/gfxmenu.mod": {
    "hash": "317cf155c09ff4fbe702efc2621afd5756800b2af025cfd61835b7b80894577a",
    "mode": "100700"
  },
  "EFI/BOOT/grub/i386-efi/gfxterm.mod": {
    "hash": "e7b1923b0773cb437aaaa2c2e3bda7921d167f161fa0555818268f1434be8138",
    "mode": "100700"
  },
  "EFI/BOOT/grub/i386-efi/gfxterm_background.mod": {
    "hash": "59a0e9ba999d65625214aaafe9bcffdfc6f4328b52d0faf07368a6b5a30953ab",
    "mode": "100700"
  },
  "EFI/BOOT/grub/i386-efi/gfxterm_menu.mod": {
    "hash": "a444320f4fc277da4c15dc3807e2471285e5f64c6aac0f208d1281a913a3710d",
    "mode": "100700"
  },
  "EFI/BOOT/grub/i386-efi/gptsync.mod": {
    "hash": "f1c403a797be68c640c354e7213c7179b3edf75a17d72601d4e791acc4ba2684",
    "mode": "100700"
  },
  "EFI/BOOT/grub/i386-efi/halt.mod": {
    "hash": "830f24436d4e9c54c576469d6bacc855df817d7d5f4b5b3e631fd0c323201498",
    "mode": "100700"
  },
  "EFI/BOOT/grub/i386-efi/hashsum.mod": {
    "hash": "d310391a475df0c94adc50ef5be3eed3587978a787841c610104591146841b5c",
    "mode": "100700"
  },
  "EFI/BOOT/grub/i386-efi/hdparm.mod": {
    "hash": "30084159a62da84f68fd3ae13c80b02f89de4c6a23e5df3fb44317e9fab2d959",
    "mode": "100700"
  },
  "EFI/BOOT/grub/i386-efi/help.mod": {
    "hash": "201382c3aed7bc9b543bc9e53dad2508f561cd1d366a43e8bd617e6b166d44e4",
    "mode": "100700"
  },
  "EFI/BOOT/grub/i386-efi/hexdump.mod": {
    "hash": "121e7035fed378bccc2341d7ddbb6659205914138de90d9a2c6b140baf4bceaa",
    "mode": "100700"
  },
  "EFI/BOOT/grub/i386-efi/hfs.mod": {
    "hash": "da02820aae7be2a49ebbf8b3b786f999b7fc40ce2e7025bb859495f8a87d3f09",
    "mode": "100700"
  },
  "EFI/BOOT/grub/i386-efi/hfsplus.mod": {
    "hash": "7c81346171073aed9b29e34c30aca6d5a6a263537f776a9b6b0e789ec5730c28",
    "mode": "100700"
  },
  "EFI/BOOT/grub/i386-efi/hfspluscomp.mod": {
    "hash": "d9daa6128e50c116041cf1161facfc32a2bd61edc89e0ffd035487ce3ead4dcf",
    "mode": "100700"
  },
  "EFI/BOOT/grub/i386-efi/http.mod": {
    "hash": "ad3b0f746f9b896031051f7d5c8c5e9c13b3c803faa012effd800ff4cef6c975",
    "mode": "100700"
  },
  "EFI/BOOT/grub/i386-efi/iorw.mod": {
    "hash": "9853a266616fe549ba0f34b365bbf6157862902119a03d50de0a824440c85787",
    "mode": "100700"
  },
  "EFI/BOOT/grub/i386-efi/iso9660.mod": {
    "hash": "e60f4e4c52b6de3e77af4e8fd66a9791e00bff86580e2a84737eb8e8839457fb",
    "mode": "100700"
  },
  "EFI/BOOT/grub/i386-efi/jfs.mod": {
    "hash": "95c0617ec2b1418ff649fcf5a6797a5b8391b87f382c8b9ff02bcee03eb1ff4a",
    "mode": "100700"
  },
  "EFI/BOOT/grub/i386-efi/jpeg.mod": {
    "hash": "fef03eb308360fbe95b63cbdbfb80821268868b0f8bc3d2b6a86acab93dd5fc7",
    "mode": "100700"
  },
  "EFI/BOOT/grub/i386-efi/keylayouts.mod": {
    "hash": "a11268f886397621233095bee6431e23c9fadbb8e44df4773be1f1a67f84adb8",
    "mode": "100700"
  },
  "EFI/BOOT/grub/i386-efi/keystatus.mod": {
    "hash": "7506d7fb7add07a762887145c9de088582785fbd7c67319eff216c62db6fdbcb",
    "mode": "100700"
  },
  "EFI/BOOT/grub/i386-efi/ldm.mod": {
    "hash": "a9abcfb532fca0cf2e43777e8a4fa5395be0e2f3e8a1b3d33b09479b06d61746",
    "mode": "100700"
  },
  "EFI/BOOT/grub/i386-efi/legacy_password_test.mod": {
    "hash": "411988060915bab3ff6473cd0dd6ae23bf466120f86384c9502bad165df89988",
    "mode": "100700"
  },
  "EFI/BOOT/grub/i386-efi/legacycfg.mod": {
    "hash": "7f7226a75fe98c072b55bda1af6170d4eff00366e67876946165a1beb895e828",
    "mode": "100700"
  },
  "EFI/BOOT/grub/i386-efi/linux16.mod": {
    "hash": "5ff10410e8bdbb6e496bc8e92514c2c96bf9f3f75ab12825b62da4dd0e4d0760",
    "mode": "100700"
  },
  "EFI/BOOT/grub/i386-efi/linuxefi.mod": {
    "hash": "f5a21a8525fa0809815b351541dea2f4ba6c62714e78b48c617e281de4544d55",
    "mode": "100700"
  },
  "EFI/BOOT/grub/i386-efi/loadbios.mod": {
    "hash": "0cb2dd18edb131de2796b3d072db6350a1b2b4c2a64968cb311840e991a5f63f",
    "mode": "100700"
  },
  "EFI/BOOT/grub/i386-efi/loadenv.mod": {
    "hash": "b294623d94fc5f9e801d26a43a58aadb9378491ada6d2f753942c1fb8724916e",
    "mode": "100700"
  },
  "EFI/BOOT/grub/i386-efi/loopback.mod": {
    "hash": "bf5e1537920a49cf9f37143d0f3a5a3187fc5386bdb7c243088464ab01e479fa",
    "mode": "100700"
  },
  "EFI/BOOT/grub/i386-efi/ls.mod": {
    "hash": "6f122a7f94b89719a593af6561d5581ed5e0e8c5d82d043646f9b596677e891c",
    "mode": "100700"
  },
  "EFI/BOOT/grub/i386-efi/lsacpi.mod": {
    "hash": "c05c02892607460a194497a197fc3f0889967c73df84b7b30608cdd919c5a2bf",
    "mode": "100700"
  },
  "EFI/BOOT/grub/i386-efi/lsefi.mod": {
    "hash": "7fe7a54546ee7c643b742dc40367becde409f0dabd808da8121e476df9805a80",
    "mode": "100700"
  },
  "EFI/BOOT/grub/i386-efi/lsefimmap.mod": {
    "hash": "0fc047b6dded1753160b05c38fde4a1c8de95d31b2aa6cca7a0c570328ddddb3",
    "mode": "100700"
  },
  "EFI/BOOT/grub/i386-efi/lsefisystab.mod": {
    "hash": "0817f832ada100161b53051b23a41aad07e57be8a6d58333d6f14a2b0b55d83e",
    "mode": "100700"
  },
  "EFI/BOOT/grub/i386-efi/lsmmap.mod": {
    "hash": "18ce52f220cb50246e1dfbc9128834a652fc1addb9f4678a7aa69be52316ba19",
    "mode": "100700"
  },
  "EFI/BOOT/grub/i386-efi/lspci.mod": {
    "hash": "620f8bebeab6fa0d74026b9337b0bd74d2a633a60c8c32ae82f3744981a4fd9a",
    "mode": "100700"
  },
  "EFI/BOOT/grub/i386-efi/lssal.mod": {
    "hash": "139f3d00eb40f7051457758a9d0df22023f3472f09efae29cf06cb5669bbf622",
    "mode": "100700"
  },
  "EFI/BOOT/grub/i386-efi/luks.mod": {
    "hash": "6b26f2610a4e851af10ec2eea3ec665aacb28d9c0b4dd3f3c31693c89e45dce7",
    "mode": "100700"
  },
  "EFI/BOOT/grub/i386-efi/lvm.mod": {
    "hash": "9f233485da17a0d695da811cecbd6d48051f201f4c760ab5a1a4baf472fff83b",
    "mode": "100700"
  },
  "EFI/BOOT/grub/i386-efi/lzopio.mod": {
    "hash": "ec17fc6b2c36d547924c6d8e7c95bdf89191d622ad92a4f37c5030a6ba537cca",
    "mode": "100700"
  },
  "EFI/BOOT/grub/i386-efi/macbless.mod": {
    "hash": "b3098baed19211ea4357c106ee150a3b605e9f2059c0455ac2db6d16e6febc70",
    "mode": "100700"
  },
  "EFI/BOOT/grub/i386-efi/macho.mod": {
    "hash": "9b1f56e45c446a2548a0360e6712d1a1f8960edb496bfe703c2d61f5d8798d37",
    "mode": "100700"
  },
  "EFI/BOOT/grub/i386-efi/mdraid09.mod": {
    "hash": "713736893fcac8a2cbe15e55aad2f17cad61cafb1bc06c3c58de3d1cc046199e",
    "mode": "100700"
  },
  "EFI/BOOT/grub/i386-efi/mdraid09_be.mod": {
    "hash": "dedac0e8a6e38d827b6e0c99d55456c7e2b593e92eb724aa9d06619a91ba0b65",
    "mode": "100700"
  },
  "EFI/BOOT/grub/i386-efi/mdraid1x.mod": {
    "hash": "aa8b1c30204a15f5529e80dd47d8559e1c87f15e3be47ed6e048866779976c4b",
    "mode": "100700"
  },
  "EFI/BOOT/grub/i386-efi/memdisk.mod": {
    "hash": "925a07deafc632f5844f268fe4f2bda24d5c88fba2a530e05d334dfb0c4d0a12",
    "mode": "100700"
  },
  "EFI/BOOT/grub/i386-efi/memrw.mod": {
    "hash": "82ee5f18a8cce7934fed69b816e5bb4280d50380e95a617920c8db3d233e7895",
    "mode": "100700"
  },
  "EFI/BOOT/grub/i386-efi/minicmd.mod": {
    "hash": "0182d92535f61cba058f15b1f59e57fb7756cbe2538db9c28b556dbdeb3c8e0e",
    "mode": "100700"
  },
  "EFI/BOOT/grub/i386-efi/minix2.mod": {
    "hash": "43295a62b10c5a3f0c9e05b0bf4800d2fa67114e18fa349fbffdcd36ccc6b82c",
    "mode": "100700"
  },
  "EFI/BOOT/grub/i386-efi/minix2_be.mod": {
    "hash": "214755e168ab5833d633757d702a9933ac85dffd12618de7bec68e9beeb7fbee",
    "mode": "100700"
  },
  "EFI/BOOT/grub/i386-efi/minix3.mod": {
    "hash": "edc0e65fb1b8beb81c8151a3817b666695c3733070985a4d36e93e4e18ae3678",
    "mode": "100700"
  },
  "EFI/BOOT/grub/i386-efi/minix3_be.mod": {
    "hash": "bfa2b7a368375e4552bbe37396281018e0e163ef6f557c1012ef715b9fa91382",
    "mode": "100700"
  },
  "EFI/BOOT/grub/i386-efi/minix_be.mod": {
    "hash": "f39d35b6291977efc83ca198a5476f41e446f4fb16bb8aa872303fe7abdf4ad1",
    "mode": "100700"
  },
  "EFI/BOOT/grub/i386-efi/mmap.mod": {
    "hash": "b15cbb547f1d95a20fdd2d7279d406a71232f27a04610cec25311a029dddbf3a",
    "mode": "100700"
  },
  "EFI/BOOT/grub/i386-efi/moddep.lst": {
    "hash": "84f3d846dd07d22b192bc899b3b404d17d660521656c167fa341770695259281",
    "mode": "100700"
  },
  "EFI/BOOT/grub/i386-efi/morse.mod": {
    "hash": "321b1fe1e46c49b93c2a86c2184e1c922b896439dd58c13e35c089a76d840ee7",
    "mode": "100700"
  },
  "EFI/BOOT/grub/i386-efi/mpi.mod": {
    "hash": "2d9112240fe547c5b8002cc7c0e530b82314d74fb128717b58164a0c39ad66e4",
    "mode": "100700"
  },
  "EFI/BOOT/grub/i386-efi/msdospart.mod": {
    "hash": "371da55e9f24cb278ddd83bfadb089700c4ec76d079a70ba15c89ec2b58d07c1",
    "mode": "100700"
  },
  "EFI/BOOT/grub/i386-efi/multiboot.mod": {
    "hash": "cbb291ab5984b17f3f31e2b617636ac967f38af077d0afcaad3e5c3c94409fd1",
    "mode": "100700"
  },
  "EFI/BOOT/grub/i386-efi/multiboot2.mod": {
    "hash": "f932036036efb86acb39451d8b144765c1d2d068185e8d694185306f3f01f377",
    "mode": "100700"
  },
  "EFI/BOOT/grub/i386-efi/nativedisk.mod": {
    "hash": "ca0ff635c942d783e7632a3bd794b69de483295242a03dbe1cae8da2c013e46f",
    "mode": "100700"
  },
  "EFI/BOOT/grub/i386-efi/net.mod": {
    "hash": "71c324027e385c0086cdd5bf91848fbcb05b0844e2773f0419a23f64da945f96",
    "mode": "100700"
  },
  "EFI/BOOT/grub/i386-efi/newc.mod": {
    "hash": "d4d6b8dd399660005f30642a117d67d27a684549e88c4fe44f9cf1428d8651e8",
    "mode": "100700"
  },
  "EFI/BOOT/grub/i386-efi/normal.mod": {
    "hash": "e1b24e399763670faeb207345395700a49b1298a175301b48c97efb6f2825e76",
    "mode": "100700"
  },
  "EFI/BOOT/grub/i386-efi/ntfs.mod": {
    "hash": "a4ae6140c614faac1613891c2a78c34cced9eec6ba2c6528ddebe6b6b427d2f1",
    "mode": "100700"
  },
  "EFI/BOOT/grub/i386-efi/ntfscomp.mod": {
    "hash": "b9edd49834b5b00e408f3d5a517656bc8a07043ff623cd2e4340b3381991bf41",
    "mode": "100700"
  },
  "EFI/BOOT/grub/i386-efi/odc.mod": {
    "hash": "314b14cb3f4b88cd2a05983ffe3e755db4985d4f30499acc7f802c4bb8493776",
    "mode": "100700"
  },
  "EFI/BOOT/grub/i386-efi/offsetio.mod": {
    "hash": "2c2402341aa6c70987cc0b7102dbba9f66127fca7670e230396b565c84abc26c",
    "mode": "100700"
  },
  "EFI/BOOT/grub/i386-efi/ohci.mod": {
    "hash": "613c3ef45f292a9bfa0e83cd647c73e3280a1374be0d7052b7c22e342b7ac33a",
    "mode": "100700"
  },
  "EFI/BOOT/grub/i386-efi/part_acorn.mod": {
    "hash": "a16943c90205afa1ec1fde41acd8adede2171f249263da5456f85597cc99fdf4",
    "mode": "100700"
  },
  "EFI/BOOT/grub/i386-efi/part_amiga.mod": {
    "hash": "33581a2f7c6500a4956c0370f498e26e6fff63b4adf374e7e83cab9faf3e701f",
    "mode": "100700"
  },
  "EFI/BOOT/grub/i386-efi/part_apple.mod": {
    "hash": "7786a5713b9b2e00fe312346c237698eb4b3772350568b553d0fe801595282e5",
    "mode": "100700"
  },
  "EFI/BOOT/grub/i386-efi/part_bsd.mod": {
    "hash": "0c853d813d5ac4c74f1d3c908e4423129896f26a37e5f97a5e4f3229c25f734b",
    "mode": "100700"
  },
  "EFI/BOOT/grub/i386-efi/part_dfly.mod": {
    "hash": "2168d4c297d5878a73e727e7cba916c80c5ddbf4a29790e531e996712d8bed21",
    "mode": "100700"
  },
  "EFI/BOOT/grub/i386-efi/part_dvh.mod": {
    "hash": "8e6026fe1be6b791ff6d74fa26622bcba002ecc56dd5beeb2eb3e28c7569209e",
    "mode": "100700"
  },
  "EFI/BOOT/grub/i386-efi/part_msdos.mod": {
    "hash": "824f49cd305e836e8a9b373d465200710eafc27de411179f2073a9c04e9b7b37",
    "mode": "100700"
  },
  "EFI/BOOT/grub/i386-efi/part_plan.mod": {
    "hash": "cfc2a0e683d7b54c44bc8f60ed87b762a3a6d861b8ee3ec17cb24ba8a6b8a854",
    "mode": "100700"
  },
  "EFI/BOOT/grub/i386-efi/part_sun.mod": {
    "hash": "1268b666fc80a63ce3bc0d3bfd30279c28db79bcac64b646f6729c73a3368c5b",
    "mode": "100700"
  },
  "EFI/BOOT/grub/i386-efi/part_sunpc.mod": {
    "hash": "b588278c070a81e8b81da62ed98923ad7c0c79806cdaf7fcbf4877c62f5dd870",
    "mode": "100700"
  },
  "EFI/BOOT/grub/i386-efi/partmap.lst": {
    "hash": "85a3d5f84d20723a27c1442b861be44fbf58a4525eefe2ccbb2b5f7ceb21e8be",
    "mode": "100700"
  },
  "EFI/BOOT/grub/i386-efi/parttool.lst": {
    "hash": "6de6036ef0dc8a908e4cc248ef1d8aab87172e722d8c5bad9e137fd43994e0fe",
    "mode": "100700"
  },
  "EFI/BOOT/grub/i386-efi/parttool.mod": {
    "hash": "5f9b2264ff597e58a4279af5b7333a993c7d99739f7775be6288958bb0efd80c",
    "mode": "100700"
  },
  "EFI/BOOT/grub/i386-efi/password.mod": {
    "hash": "e60754ceb9722efd947832d5a4d57e0cb058c07bfd0945941ac558ccb36f9f2c",
    "mode": "100700"
  },
  "EFI/BOOT/grub/i386-efi/password_pbkdf2.mod": {
    "hash": "005771d216f0c759c1b72590d533869e7f04fcc6452e977e078c882873b1306e",
    "mode": "100700"
  },
  "EFI/BOOT/grub/i386-efi/pata.mod": {
    "hash": "463d2391dc279f48ed4f94cdd462728867785753d0fc326e8e94662176c0009f",
    "mode": "100700"
  },
  "EFI/BOOT/grub/i386-efi/pbkdf2.mod": {
    "hash": "a7dac54a1cfbb4b7013ca7939c1f04397ec8cb68bb639e8073402e11a8ede94a",
    "mode": "100700"
  },
  "EFI/BOOT/grub/i386-efi/pbkdf2_test.mod": {
    "hash": "72f184d4de86b442a377824aee53a712139893f411f3a20c1a591737ea82fd5c",
    "mode": "100700"
  },
  "EFI/BOOT/grub/i386-efi/pcidump.mod": {
    "hash": "8ab66ed4ad3e22c0660d059e313af60f7b79b7258130565423849b73b1c63b3a",
    "mode": "100700"
  },
  "EFI/BOOT/grub/i386-efi/play.mod": {
    "hash": "7a8e550a3f808de562b17f1290709fc1b055e441db13400b3d43e1ce06ab6f2a",
    "mode": "100700"
  },
  "EFI/BOOT/grub/i386-efi/png.mod": {
    "hash": "44c9e0d1b5f7cd77828624b1a94b96366c96e8c3c8ee3863b96d5633610a8a3b",
    "mode": "100700"
  },
  "EFI/BOOT/grub/i386-efi/priority_queue.mod": {
    "hash": "16021d9d30cb519611af92a515402ddc6b6c1a1359209bbbec1b65d8913f6aa3",
    "mode": "100700"
  },
  "EFI/BOOT/grub/i386-efi/probe.mod": {
    "hash": "9118da80eaeae54d65471b177201799a6da28442027f5ba134970734c217504e",
    "mode": "100700"
  },
  "EFI/BOOT/grub/i386-efi/procfs.mod": {
    "hash": "30985e5f38f62e26a5efa4ceaad6d22db631095bb1598e087dfbae34de81a992",
    "mode": "100700"
  },
  "EFI/BOOT/grub/i386-efi/progress.mod": {
    "hash": "5ce5cdd7e3f624e221bb2ca5e675b94342085b35bcf8846d347bb2d61ea18dd4",
    "mode": "100700"
  },
  "EFI/BOOT/grub/i386-efi/raid5rec.mod": {
    "hash": "c6677e5db5c9e627d05d7e495954bc6f3c049d28d6c4e5458bb5e2f5a5b72eb0",
    "mode": "100700"
  },
  "EFI/BOOT/grub/i386-efi/raid6rec.mod": {
    "hash": "1494b99a487182de9768c36a56af16ae1ab57c533aa1aba128245d3a78d5e0c0",
    "mode": "100700"
  },
  "EFI/BOOT/grub/i386-efi/read.mod": {
    "hash": "559bbfd3b3df26ed15bf74c89bb1cd59a7463218e18c1f9d0b2a3f199a999f5d",
    "mode": "100700"
  },
  "EFI/BOOT/grub/i386-efi/reboot.mod": {
    "hash": "7b74da2ba78d08637ede6b19797180f6d0cac85ff92e6a1ffdb04d7b7a978697",
    "mode": "100700"
  },
  "EFI/BOOT/grub/i386-efi/regexp.mod": {
    "hash": "fe375fd77251294e205061c591d4a8cab207d9adf102da09dc231dfe58ed6759",
    "mode": "100700"
  },
  "EFI/BOOT/grub/i386-efi/reiserfs.mod": {
    "hash": "3d40a71318765a002f545ccf70a83633187e7e3c5196accec09398a07ccc3740",
    "mode": "100700"
  },
  "EFI/BOOT/grub/i386-efi/relocator.mod": {
    "hash": "156d989b3607017e4ecca30829d0eb9e9f848965163749ff5652fc5055d1d1fc",
    "mode": "100700"
  },
  "EFI/BOOT/grub/i386-efi/romfs.mod": {
    "hash": "c43795d49fb086560949e32e07da85592a7c23e9ac448982824f49d175a54756",
    "mode": "100700"
  },
  "EFI/BOOT/grub/i386-efi/scsi.mod": {
    "hash": "797e5a63aa285197858221d4bcbdb31f7dad560b29950011bf46741dd251dac8",
    "mode": "100700"
  },
  "EFI/BOOT/grub/i386-efi/serial.mod": {
    "hash": "daecd89afffa1002e4da9abecc062560ae3fd963d973cd212ab994e1f0c76d29",
    "mode": "100700"
  },
  "EFI/BOOT/grub/i386-efi/setjmp.mod": {
    "hash": "839f3aca233bd317cc8b7fc0e7914b73e36b7f2545847b4e6a07a469621984d6",
    "mode": "100700"
  },
  "EFI/BOOT/grub/i386-efi/setjmp_test.mod": {
    "hash": "9351bacc1e999588003ce6917e4750e5b9b6ba2ae646680d87ec0df2230647fd",
    "mode": "100700"
  },
  "EFI/BOOT/grub/i386-efi/setpci.mod": {
    "hash": "81d99c497bdcace0f487952c06d517188b04ac9995205d31e201cea13e168ca2",
    "mode": "100700"
  },
  "EFI/BOOT/grub/i386-efi/signature_test.mod": {
    "hash": "c6e0fa3b36a520495bdb64c33fa3a09adfc56f007b9266d54a193b77dee52f3e",
    "mode": "100700"
  },
  "EFI/BOOT/grub/i386-efi/sleep.mod": {
    "hash": "2804e45cdda4d09e85fefeff60b7e776987dc825e776e00ece949fc10f49a14e",
    "mode": "100700"
  },
  "EFI/BOOT/grub/i386-efi/sleep_test.mod": {
    "hash": "4cfb739d950eab16be1ddf73d1d857d5e31879d5775940e5a1c0ad3cff67668b",
    "mode": "100700"
  },
  "EFI/BOOT/grub/i386-efi/spkmodem.mod": {
    "hash": "5a305a085b17c433d9a9c9eb045e3953a5d56b375320dae245a2969752aed573",
    "mode": "100700"
  },
  "EFI/BOOT/grub/i386-efi/squash4.mod": {
    "hash": "158d27b825ed021977401e5bdf06e7336cff3aaf2e0d9398e77083cd809dd6eb",
    "mode": "100700"
  },
  "EFI/BOOT/grub/i386-efi/syslinuxcfg.mod": {
    "hash": "d375ffe5271c5a1b1fd23e6f53cbccef322d49122ee76f72421d1abe22abeda7",
    "mode": "100700"
  },
  "EFI/BOOT/grub/i386-efi/terminal.lst": {
    "hash": "46f888c52f36baf9b62d60bc8d06426a314aad5a0ff86a4362a91c2512a1df9c",
    "mode": "100700"
  },
  "EFI/BOOT/grub/i386-efi/terminal.mod": {
    "hash": "7aa2d46d75b5b82ff0745d2e321c816bfd40f5e7a8b3bfc906b6fae04f154be3",
    "mode": "100700"
  },
  "EFI/BOOT/grub/i386-efi/terminfo.mod": {
    "hash": "efa89dcc03b84b3a1cec777d463468690b6c326cab18017a3410a8f702323445",
    "mode": "100700"
  },
  "EFI/BOOT/grub/i386-efi/test.mod": {
    "hash": "d422d40e8ddb6db92adc1c2ea7065ac88cbb6a874c63f5ec5107768f70184fec",
    "mode": "100700"
  },
  "EFI/BOOT/grub/i386-efi/test_blockarg.mod": {
    "hash": "695dc7f92c10a9fbaf5e96ea529a8007ea3b24f58cfdd50ff261cc611d8d0f10",
    "mode": "100700"
  },
  "EFI/BOOT/grub/i386-efi/testload.mod": {
    "hash": "12a1455665a1d26abd93ef298600666eed63566803987b729571f75ffcc76906",
    "mode": "100700"
  },
  "EFI/BOOT/grub/i386-efi/testspeed.mod": {
    "hash": "fe2d97ecc18c2495ed784ce98280616d07e77b1e51d0933e914b5e93f20867be",
    "mode": "100700"
  },
  "EFI/BOOT/grub/i386-efi/tftp.mod": {
    "hash": "0de9448067c370182aae10c5a659f8088b60a5c52790cc09821f1a962c2b27d3",
    "mode": "100700"
  },
  "EFI/BOOT/grub/i386-efi/tga.mod": {
    "hash": "2603097fd8bf78df982ccd85f53ac958b88946a56cce45df2019b6a43185b272",
    "mode": "100700"
  },
  "EFI/BOOT/grub/i386-efi/time.mod": {
    "hash": "9df0000b94cf34036aedf29df38782a190b4165e50f64ebecd1768e0f91b4ffe",
    "mode": "100700"
  },
  "EFI/BOOT/grub/i386-efi/tr.mod": {
    "hash": "cc868c2b4d3c6841acb8b6f2f5cd5c7f8bf280e5f7c64c510daa8c5ad099d2f9",
    "mode": "100700"
  },
  "EFI/BOOT/grub/i386-efi/trig.mod": {
    "hash": "a3498130dd32853bf974c713cf6d41ef723049654c013f8a5f5467754406b078",
    "mode": "100700"
  },
  "EFI/BOOT/grub/i386-efi/true.mod": {
    "hash": "d7847da45733bbb88e34a0f0360b8540804c9735572c428cb881111e1c24a4da",
    "mode": "100700"
  },
  "EFI/BOOT/grub/i386-efi/udf.mod": {
    "hash": "27909d76f3f1c5f16d4d7539675a0b396f938d81937d09185dc8e6c323ff868b",
    "mode": "100700"
  },
  "EFI/BOOT/grub/i386-efi/ufs1.mod": {
    "hash": "971dd67f5951f0692470196771a03965012216292afd577c7a7dfb3c676d8f3a",
    "mode": "100700"
  },
  "EFI/BOOT/grub/i386-efi/ufs1_be.mod": {
    "hash": "b048d632c462994c885c85425e30a1cf4b75c9add19bf2051e86d15ed7cd1fc7",
    "mode": "100700"
  },
  "EFI/BOOT/grub/i386-efi/ufs2.mod": {
    "hash": "4698a77ff4cefc24d46aaac8d8d80c016b70185b214908bc9a1b92121174ba79",
    "mode": "100700"
  },
  "EFI/BOOT/grub/i386-efi/uhci.mod": {
    "hash": "81393c77ff3993286947c3288c3318765e299f0f3e87d7962b232d26994a0afe",
    "mode": "100700"
  },
  "EFI/BOOT/grub/i386-efi/usb.mod": {
    "hash": "a776165499755460f5671171114e702f4f1cae3d21a9aed22cc457c6eefa1bfb",
    "mode": "100700"
  },
  "EFI/BOOT/grub/i386-efi/usb_keyboard.mod": {
    "hash": "9128d5b0c4e6400546eff8176226df6e88cabcb133f73fdd77d910e1d10cd95b",
    "mode": "100700"
  },
  "EFI/BOOT/grub/i386-efi/usbms.mod": {
    "hash": "e0a8dc2b68b6fd7696d05f1caec69432ecb3b889cab51b715e8c59f493dbc11d",
    "mode": "100700"
  },
  "EFI/BOOT/grub/i386-efi/usbserial_common.mod": {
    "hash": "581fdde3a503e24325f57e0681c63ef471514de8e928fb04509d685bd99544a5",
    "mode": "100700"
  },
  "EFI/BOOT/grub/i386-efi/usbserial_ftdi.mod": {
    "hash": "6e6c4ddca1c1ca86d7f6963792b24137f5846c32ed1b129fd270319c28c241d2",
    "mode": "100700"
  },
  "EFI/BOOT/grub/i386-efi/usbserial_pl2303.mod": {
    "hash": "c9365714b9560d918ac9b3094e275ce3d6eac0171df513f28bb9977db2916bed",
    "mode": "100700"
  },
  "EFI/BOOT/grub/i386-efi/usbserial_usbdebug.mod": {
    "hash": "a2dc6304a22200dbe12d43e44d3bf801b8a85c8e5a8eebfe7a248f61f9f3faff",
    "mode": "100700"
  },
  "EFI/BOOT/grub/i386-efi/usbtest.mod": {
    "hash": "4723f49231500288cdf9ca0dea2e970581e6e235b056d66b30fcb952fc4e87a1",
    "mode": "100700"
  },
  "EFI/BOOT/grub/i386-efi/verify.mod": {
    "hash": "fe5b85f34d6c2da11f6fe3f173a8956175fa6806595f1e44d1028dd060fbf10a",
    "mode": "100700"
  },
  "EFI/BOOT/grub/i386-efi/video.lst": {
    "hash": "c1e522beadd3b37cad435d9ef6e955c5862d2964cc6534878ccff8c0a384dcc0",
    "mode": "100700"
  },
  "EFI/BOOT/grub/i386-efi/video.mod": {
    "hash": "3e09f3c29b1f1860bb05de3a14f4f296d0b9c437a16d0ac64ea8b30b93260d30",
    "mode": "100700"
  },
  "EFI/BOOT/grub/i386-efi/video_bochs.mod": {
    "hash": "0fb1b878f4bfa2812387d6e9e884295d819be57137a93dd34e693e4338f07b36",
    "mode": "100700"
  },
  "EFI/BOOT/grub/i386-efi/video_cirrus.mod": {
    "hash": "fcba4c9d3a5be47d807079a9cb675895c50e33a5ab2fb23bfdefc6ea46c67071",
    "mode": "100700"
  },
  "EFI/BOOT/grub/i386-efi/video_colors.mod": {
    "hash": "2d441230ba777c267a70f00f56028a8538b5e5389ca0e131834df007bdf4f2db",
    "mode": "100700"
  },
  "EFI/BOOT/grub/i386-efi/video_fb.mod": {
    "hash": "8ec4dc0bca60c5519a098be1cd9478a107294e437e45e2a1a8a97960646e8999",
    "mode": "100700"
  },
  "EFI/BOOT/grub/i386-efi/videoinfo.mod": {
    "hash": "6ac682a01bd10cddc3e175593db37c22700d724fa2d753f383a6eb3e806d79b2",
    "mode": "100700"
  },
  "EFI/BOOT/grub/i386-efi/videotest.mod": {
    "hash": "7d9433460295f27009cacc194c63cf6c8f18d41f0d13f86b8a006b0cfea198d6",
    "mode": "100700"
  },
  "EFI/BOOT/grub/i386-efi/videotest_checksum.mod": {
    "hash": "5cdca70d72566851ee4101debd9bc39277a3fe5a385b0734b5942bdcca802866",
    "mode": "100700"
  },
  "EFI/BOOT/grub/i386-efi/xfs.mod": {
    "hash": "a7e614ed071a5a213fa07eeda8d26e47bfcb68b1ea0478c595f28bdb2792675f",
    "mode": "100700"
  },
  "EFI/BOOT/grub/i386-efi/xnu.mod": {
    "hash": "a5b63f26970d9a4d9542da5ad26b7efc827df0a4ba20d3457c85e2c6c4e38a8d",
    "mode": "100700"
  },
  "EFI/BOOT/grub/i386-efi/xnu_uuid.mod": {
    "hash": "a85e94c6686c2a227d29c442893582f9692c86f5213bb30670579b89fc77e25a",
    "mode": "100700"
  },
  "EFI/BOOT/grub/i386-efi/xnu_uuid_test.mod": {
    "hash": "c82bb50763ebc744b31acb8cd516821a736e57c108b5f61ad64a309a5f012c26",
    "mode": "100700"
  },
  "EFI/BOOT/grub/i386-efi/xzio.mod": {
    "hash": "26c083b6de10a85a0d4328ec60c27fc648cf9507d5bfc3633e3e3319343fc365",
    "mode": "100700"
  },
  "EFI/BOOT/grub/i386-efi/zfscrypt.mod": {
    "hash": "378c8fab00561228b3e24902d383ab3f4e6d519bebce9166a44cafd1fdfa07ab",
    "mode": "100700"
  },
  "EFI/BOOT/hdt.c32": {
    "hash": "44d17bde523460c5ee9dd7f47931b9bfbee4bdbc210f7bdd2752d45a62bed61d",
    "mode": "100700"
  },
  "EFI/BOOT/hexdump.c32": {
    "hash": "c436eb1d5d9fb9287e491c92b6b513118abc127452cb6cd9ff0dd02cb5d568bb",
    "mode": "100700"
  },
  "EFI/BOOT/host.c32": {
    "hash": "ecfa4f9347f450f467aed387787cba50072d8b66fec50c9dda719ec83252e791",
    "mode": "100700"
  },
  "EFI/BOOT/ifcpu.c32": {
    "hash": "30e5b42c782a99fc6edb3a6de626039ba7638facf9dd09784a274ac5d029cc9a",
    "mode": "100700"
  },
  "EFI/BOOT/ifcpu64.c32": {
    "hash": "1a9a6a6a71253673b55cdd827ff720bc3b54294ff025036e9ae5ac96a275c772",
    "mode": "100700"
  },
  "EFI/BOOT/ifmemdsk.c32": {
    "hash": "19533996578057fb9cea238f5c4558cbbf1bcb5e4583c93f3fff0cf91ce1c52c",
    "mode": "100700"
  },
  "EFI/BOOT/ifplop.c32": {
    "hash": "e0de679a161c11c1fe88a18adb43df459b5f9a28d8fb5416e71504b29d649aff",
    "mode": "100700"
  },
  "EFI/BOOT/isolinux.bin": {
    "hash": "550397fb9696008bd687599ed1224ac82038786e0ab1c960447142ea6d7d64d8",
    "mode": "100700"
  },
  "EFI/BOOT/isolinux.cfg": {
    "hash": "2e257be9351b18d7361afd4555976c46bbcee6f85c37467c12828cffd4d89f59",
    "mode": "100700"
  },
  "EFI/BOOT/kbdmap.c32": {
    "hash": "60b409ed899d4fbf411782502d647d912e17bf03ce86732b43597b05be92811d",
    "mode": "100700"
  },
  "EFI/BOOT/kontron_wdt.c32": {
    "hash": "218497f65a6d2ee24f8d34dfe9bb87a7d56321f0439000cfcae77c218a7bbfbd",
    "mode": "100700"
  },
  "EFI/BOOT/ldlinux.c32": {
    "hash": "aaa6e824ff8d66f54b17960a9bf8b81b8864064c826c46705a1dd4688a0d427c",
    "mode": "100700"
  },
  "EFI/BOOT/ldlinux.e64": {
    "hash": "bded2289dadfdc29a72ac1d700863c79df70cce014627dabd53a58e172c74f92",
    "mode": "100700"
  },
  "EFI/BOOT/lfs.c32": {
    "hash": "87cb7992c61644e64402412114eaad8711feeb289e9ead85fe469805cd0a85c3",
    "mode": "100700"
  },
  "EFI/BOOT/libcom32.c32": {
    "hash": "949a0e540bbe91051e0b4af894d8928e079536d5a4e1a59901aba6647c3bab9f",
    "mode": "100700"
  },
  "EFI/BOOT/libgpl.c32": {
    "hash": "99e4ee206a6c46f9676515ca3182d143949e79d28207eba0f35f53f5ac9cade5",
    "mode": "100700"
  },
  "EFI/BOOT/liblua.c32": {
    "hash": "c03bd9d6de02e9b584bd297e324fdb18b7dc7ddfd53f64fe8263f0e4f4eef0cb",
    "mode": "100700"
  },
  "EFI/BOOT/libmenu.c32": {
    "hash": "26c58b7a242cf638a06b0efbeea7215d43e32887085a303afb0faba5816993e8",
    "mode": "100700"
  },
  "EFI/BOOT/libutil.c32": {
    "hash": "c68af7d370f7d88be5cf3ca6d254644c7af46e614c76fc51fac44cb3940a1154",
    "mode": "100700"
  },
  "EFI/BOOT/linux.c32": {
    "hash": "815057b5d39027ce53c24f91f0cc45ed584ba71a863643b427d7ed3a886a5d13",
    "mode": "100700"
  },
  "EFI/BOOT/live.cfg": {
    "hash": "1bf0e186cf58aeec7ba24c36e93bf7e9b94cac661621076277c9736aa33b1eab",
    "mode": "100700"
  },
  "EFI/BOOT/live486.cfg": {
    "hash": "74a63f38e01d99c2a534944d030acb8a3c5ac6572c1f42d7743aa1abb84f5c1b",
    "mode": "100700"
  },
  "EFI/BOOT/liveamd64.cfg": {
    "hash": "2d594747b2953d8480dfe1160bc9bcc9accf7a1e930da46a10311819151a624d",
    "mode": "100700"
  },
  "EFI/BOOT/ls.c32": {
    "hash": "d90e4669da9d7cde00d96130b1c34f6822800b1b9f8a87ea3ea0dc4029792b91",
    "mode": "100700"
  },
  "EFI/BOOT/lua.c32": {
    "hash": "04ade91639b0f99a16fdae90205989afdb247d7dfbbcbb298f4b9cf919b79a5c",
    "mode": "100700"
  },
  "EFI/BOOT/mboot.c32": {
    "hash": "c86a669286909a426c5758df2e5c2f4b326fd031aa184caef52d0f349208e908",
    "mode": "100700"
  },
  "EFI/BOOT/meminfo.c32": {
    "hash": "06df6d975880a4f90c1e101ece633494b4c0bf1a28daa246974bfb2088535556",
    "mode": "100700"
  },
  "EFI/BOOT/menu.c32": {
    "hash": "c8285ab5a52b4f35f3e59ee3cd722176ddbb254442ab3e3878a75aa601033915",
    "mode": "100700"
  },
  "EFI/BOOT/menu.cfg": {
    "hash": "bd9f84f3b938f336c2948779246f75feeb5f4af2d5d78c4932dd2a0b69a8d543",
    "mode": "100700"
  },
  "EFI/BOOT/pci.c32": {
    "hash": "f26abf0b2d479efc2670da31f9b9a6e737b8c7fac1d3f0534bea48e8d93475ba",
    "mode": "100700"
  },
  "EFI/BOOT/pcitest.c32": {
    "hash": "1c7edc5e13c3bafa5cacabf2717232a114f3fa35b4f42a3f63a622b705cdb8a2",
    "mode": "100700"
  },
  "EFI/BOOT/pmload.c32": {
    "hash": "f9840b3ad4cb255a37f83841cba77291c9999bc6f154043d432b0d7890ee334f",
    "mode": "100700"
  },
  "EFI/BOOT/poweroff.c32": {
    "hash": "c0af91e73cd3229b2318a342a25198112428888490464dd662312a822debfe62",
    "mode": "100700"
  },
  "EFI/BOOT/prdhcp.c32": {
    "hash": "c107b01fe2f0d0528d7bfeb1cc501dce6f77004cf550969b8d0f9c96f9777b12",
    "mode": "100700"
  },
  "EFI/BOOT/pwd.c32": {
    "hash": "b2ed78c24729cfe748079fe23d83fe68594a4bcdfcc6d2bf8cab446dcbdc0bb5",
    "mode": "100700"
  },
  "EFI/BOOT/pxechn.c32": {
    "hash": "f8747739e720431e07b4234173e138c529d96bd013632fbc679f167e8f7c5c66",
    "mode": "100700"
  },
  "EFI/BOOT/reboot.c32": {
    "hash": "e8ca4f0fd211a2026acf031f2df8cb26d07d3a99cb4346a0f8640288894f68c0",
    "mode": "100700"
  },
  "EFI/BOOT/rosh.c32": {
    "hash": "2005403ea8a9112b07d197e9dfec028befe10952ebc16e14fd59016f7e446b77",
    "mode": "100700"
  },
  "EFI/BOOT/sanboot.c32": {
    "hash": "bdd511cf9980ca961c654e94d6f4029c6461cf0b0da1d7dca648defd38804868",
    "mode": "100700"
  },
  "EFI/BOOT/sdi.c32": {
    "hash": "4633f8334fd419d80576553c55358a9e91cf310393248914a68d44c338c97e48",
    "mode": "100700"
  },
  "EFI/BOOT/splash.png": {
    "hash": "00593e8f8db8d1e43be74008e4e2af286b200a2626a7bd08ec500377a54dcfc9",
    "mode": "100700"
  },
  "EFI/BOOT/stdmenu.cfg": {
    "hash": "ad791606d556434d5094a6d19620d3eb6e4c7f74b43ee13fa1cd1665376c711b",
    "mode": "100700"
  },
  "EFI/BOOT/sysdump.c32": {
    "hash": "e71bdd8e6085823e64ffd7b30ce73a896c7a4951b6c007f934064a735efa9514",
    "mode": "100700"
  },
  "EFI/BOOT/syslinux.c32": {
    "hash": "628a0a88e7f0d090e281275c93908f1bd5175039bd5a3294ffe7f751a87a47d6",
    "mode": "100700"
  },
  "EFI/BOOT/syslinux.cfg": {
    "hash": "2e257be9351b18d7361afd4555976c46bbcee6f85c37467c12828cffd4d89f59",
    "mode": "100700"
  },
  "EFI/BOOT/tails.cfg": {
    "hash": "961db1c6288e5acefb9c7fe26dd79598862903eff677c151845fde3faeeb15b5",
    "mode": "100700"
  },
  "EFI/BOOT/vesa.c32": {
    "hash": "2cf78be9c4a63f02b99eb7d376ea36fb5b2b79d5d46120a8cd5a4bb775c8c835",
    "mode": "100700"
  },
  "EFI/BOOT/vesainfo.c32": {
    "hash": "360be536f405e5c029a6620803e01dc0a83abc44facfe2fd5635d3e64cfcffb7",
    "mode": "100700"
  },
  "EFI/BOOT/vesamenu.c32": {
    "hash": "cc349b4bbd9ef2aaddd436b7ffe2f51854dbfe6cc3d2a57c72e1319fcf5b8bc1",
    "mode": "100700"
  },
  "EFI/BOOT/vpdtest.c32": {
    "hash": "61d35de25b370bea63a3e54d96626453df1a4a1756f858edbc4e9925969547c0",
    "mode": "100700"
  },
  "EFI/BOOT/whichsys.c32": {
    "hash": "3ed1304282507622c7077ec8dcce1a36606587ce0e38a12cf761aa76bf010dc3",
    "mode": "100700"
  },
  "EFI/BOOT/zzjson.c32": {
    "hash": "1c531620004b9e652263692aeeefb1ce7c9851ebeb08a114984708535481a12e",
    "mode": "100700"
  },
  "live": {
    "mode": "40700"
  },
  "live/Tails.module": {
    "hash": "2e23dcf5b310900d298c33d3cfb2ea091e03193b69a7d4e0eb90dd1d905a6688",
    "mode": "100700"
  },
  "live/filesystem.packages": {
    "hash": "1017e8eb6464ed4c70597b976eaf263dfcc74595f2b32c32e1c4d2aec0e03ee2",
    "mode": "100700"
  },
  "live/filesystem.squashfs": {
    "hash": "18c82e14cc9d291f528a7a58e9512e9a5b9454ecaa42589bd7cb80cce28e7272",
    "mode": "100700"
  },
  "live/initrd.img": {
    "hash": "6b474c07909bb978eb53d8deac2183e4ca90592d1c4070160e79ebb06465352c",
    "mode": "100700"
  },
  "live/initrd2.img": {
    "hash": "74c798c3e40912692554709619428be367e7cd7fec5694bb1c82e77f3e270270",
    "mode": "100700"
  },
  "live/vmlinuz": {
    "hash": "52fb9a8521ce80c9b6b054cb96fa51b7bab4747c5c45466a409202230e7a4f72",
    "mode": "100700"
  },
  "live/vmlinuz2": {
    "hash": "ac60327d3e88419ed904992d2814fe9ed6d03ac9aef7d27acbd7dd3c804c9525",
    "mode": "100700"
  },
  "syslinux": {
    "mode": "40700"
  },
  "syslinux/boot.cat": {
    "hash": "b08c67d5501869ae6ac58bc355ab7bdccd6e669dc042eed155c42d58628eae46",
    "mode": "100700"
  },
  "syslinux/f1.txt": {
    "hash": "f6a0c64cd46caec2a05ea2f7a389926d123930372db359332fa41c11b47b9412",
    "mode": "100700"
  },
  "syslinux/f10.txt": {
    "hash": "f00c82a22bd2a4d9b36749dee83f8b3b23b607944e25dd4a36a1a51eeb736c51",
    "mode": "100700"
  },
  "syslinux/f2.txt": {
    "hash": "605fdec56281a4eedb1e98090c60daeb1db593701070e3bdb84d6961d0431a20",
    "mode": "100700"
  },
  "syslinux/f3.txt": {
    "hash": "014b28b4654d29b3da09b3a7f2da76b32bff60120ae62e4036d66360a1fadaa1",
    "mode": "100700"
  },
  "syslinux/f4.txt": {
    "hash": "184e3ebbed1d06debc64a932244df7ed45ff45d7ec357113bee5182c64920170",
    "mode": "100700"
  },
  "syslinux/f5.txt": {
    "hash": "09f4d88e269b23129c004dfb382c8d899f2c3644b0961b4273a2bb453b4d24ab",
    "mode": "100700"
  },
  "syslinux/f6.txt": {
    "hash": "8506e93159c8a5efdd8d0c7cbbbe7f633854b0377cb875c1a50898ce3ce7e816",
    "mode": "100700"
  },
  "syslinux/f7.txt": {
    "hash": "92659653110ae196c988cc4db1c5ffb9f3a4a7206ba58846efa8f30d9571eda3",
    "mode": "100700"
  },
  "syslinux/f8.txt": {
    "hash": "0fa068a91b96048f70c5d53060d0673ab4eb815c712317363f87901900eb01d9",
    "mode": "100700"
  },
  "syslinux/f9.txt": {
    "hash": "137c16870940e20edb3dbf5c425520cadf361974b763086948cff7b7df62a8ed",
    "mode": "100700"
  },
  "syslinux/ifcpu64.c32": {
    "hash": "d967cb0dd50a4a4bc758ccbc1b3c08554462266f53747bdf09cff8f7ee5ebdc1",
    "mode": "100700"
  },
  "syslinux/isolinux.bin": {
    "hash": "aec6dbd55cc9c1b3f96dfea37e7a80e604618ccb4f1ffef4fe340eaa9cddec84",
    "mode": "100700"
  },
  "syslinux/ldlinux.c32": {
    "hash": "aaa6e824ff8d66f54b17960a9bf8b81b8864064c826c46705a1dd4688a0d427c",
    "mode": "100500"
  },
  "syslinux/libcom32.c32": {
    "hash": "76025f12ce1959f62fc9a02fffeb634263896de91fb9108db03d8b4850254cd2",
    "mode": "100700"
  },
  "syslinux/libutil.c32": {
    "hash": "555167ec74aa91193cc91ac98902f54aacc5f54228285b16db306bb857f6d811",
    "mode": "100700"
  },
  "syslinux/live.cfg": {
    "hash": "1bf0e186cf58aeec7ba24c36e93bf7e9b94cac661621076277c9736aa33b1eab",
    "mode": "100700"
  },
  "syslinux/live486.cfg": {
    "hash": "74a63f38e01d99c2a534944d030acb8a3c5ac6572c1f42d7743aa1abb84f5c1b",
    "mode": "100700"
  },
  "syslinux/liveamd64.cfg": {
    "hash": "2d594747b2953d8480dfe1160bc9bcc9accf7a1e930da46a10311819151a624d",
    "mode": "100700"
  },
  "syslinux/menu.cfg": {
    "hash": "bd9f84f3b938f336c2948779246f75feeb5f4af2d5d78c4932dd2a0b69a8d543",
    "mode": "100700"
  },
  "syslinux/splash.png": {
    "hash": "00593e8f8db8d1e43be74008e4e2af286b200a2626a7bd08ec500377a54dcfc9",
    "mode": "100700"
  },
  "syslinux/stdmenu.cfg": {
    "hash": "b5f1d3d4c628c6e6652aa25a973290e759a3cedf7cb82035eb12e9c935bb39f0",
    "mode": "100700"
  },
  "syslinux/syslinux.cfg": {
    "hash": "2e257be9351b18d7361afd4555976c46bbcee6f85c37467c12828cffd4d89f59",
    "mode": "100700"
  },
  "syslinux/tails.cfg": {
    "hash": "961db1c6288e5acefb9c7fe26dd79598862903eff677c151845fde3faeeb15b5",
    "mode": "100700"
  },
  "syslinux/vesamenu.c32": {
    "hash": "2d83407d49e1e27fb90f744908bc15d5367d9bb4bd1c3dbf9279cb1fc334e888",
    "mode": "100700"
  },
  "utils": {
    "mode": "40700"
  },
  "utils/linux": {
    "mode": "40700"
  },
  "utils/linux/syslinux": {
    "hash": "6c55c7db7aa5ef5608a890832c7e0f9cfde532a2d86a9e132d5635ece28cb4b1",
    "mode": "100700"
  },
  "utils/mbr": {
    "mode": "40700"
  },
  "utils/mbr/mbr.bin": {
    "hash": "d2a9081727f91f4c38494e52cdeb86ebd9009fead17a739effbad4011c581d1f",
    "mode": "100700"
  },
  "utils/win32": {
    "mode": "40700"
  },
  "utils/win32/syslinux.exe": {
    "hash": "ac389246cd45e69c1e41f88ef87f4083a817a97e0feaa153ba677ca703d36fab",
    "mode": "100700"
  }
}