{
  "": {
    "mode": "40700"
  },
  "live": {
    "mode": "40700"
  },
  "live/vmlinuz2": {
    "hash": "ac60327d3e88419ed904992d2814fe9ed6d03ac9aef7d27acbd7dd3c804c9525",
    "mode": "100700"
  },
  "live/vmlinuz": {
    "hash": "52fb9a8521ce80c9b6b054cb96fa51b7bab4747c5c45466a409202230e7a4f72",
    "mode": "100700"
  },
  "live/initrd2.img": {
    "hash": "bc59a5fd5ebeb1be0e2312693f18b9215bce7b4847a499f0ac9fc004dd6bde76",
    "mode": "100700"
  },
  "live/initrd.img": {
    "hash": "71fee1759e5d882e82a772d3cf4a454215c9ae100e4d1243df69de1d3868bfb4",
    "mode": "100700"
  },
  "live/1.8.2.squashfs": {
    "hash": "73fdcbf1a925bebaff2decdd19b38a37b7e67582b5fb0bcd583dad8e34d67086",
    "mode": "100700"
  },
  "utils": {
    "mode": "40700"
  },
  "utils/mbr": {
    "mode": "40700"
  },
  "utils/mbr/mbr.bin": {
    "hash": "d2a9081727f91f4c38494e52cdeb86ebd9009fead17a739effbad4011c581d1f",
    "mode": "100700"
  },
  "utils/win32": {
    "mode": "40700"
  },
  "utils/win32/syslinux.exe": {
    "hash": "ac389246cd45e69c1e41f88ef87f4083a817a97e0feaa153ba677ca703d36fab",
    "mode": "100700"
  },
  "utils/linux": {
    "mode": "40700"
  },
  "utils/linux/syslinux": {
    "hash": "486141cf7cec153d33e3e1d8a5df0dd1a64e27f9e3ef73ca30c9f5bd2fbf2d3b",
    "mode": "100700"
  },
  "syslinux": {
    "mode": "40700"
  },
  "syslinux/f3.txt": {
    "hash": "014b28b4654d29b3da09b3a7f2da76b32bff60120ae62e4036d66360a1fadaa1",
    "mode": "100700"
  },
  "syslinux/f7.txt": {
    "hash": "92659653110ae196c988cc4db1c5ffb9f3a4a7206ba58846efa8f30d9571eda3",
    "mode": "100700"
  },
  "syslinux/ldlinux.c32": {
    "hash": "404e5a93f2af2c723a3e2ff494dbcbb74519eac515831145d79166aacce149ff",
    "mode": "100500"
  },
  "syslinux/libutil.c32": {
    "hash": "ce157d73081de4ccc03e4c36ac746b4659de6fa9a22653ff573fae484940df41",
    "mode": "100700"
  },
  "syslinux/liveamd64.cfg": {
    "hash": "85d9a8c39159949f8f04c1e9a4b7502b8069e5516ecbdcabdb4b048be05a01f4",
    "mode": "100700"
  },
  "syslinux/live486.cfg": {
    "hash": "08e1d5ed857e3088f62d4611dcf50d5308876e2bec5fa8e315a05c2ad9019ef6",
    "mode": "100700"
  },
  "syslinux/stdmenu.cfg": {
    "hash": "b5f1d3d4c628c6e6652aa25a973290e759a3cedf7cb82035eb12e9c935bb39f0",
    "mode": "100700"
  },
  "syslinux/f5.txt": {
    "hash": "09f4d88e269b23129c004dfb382c8d899f2c3644b0961b4273a2bb453b4d24ab",
    "mode": "100700"
  },
  "syslinux/splash.png": {
    "hash": "00593e8f8db8d1e43be74008e4e2af286b200a2626a7bd08ec500377a54dcfc9",
    "mode": "100700"
  },
  "syslinux/f9.txt": {
    "hash": "137c16870940e20edb3dbf5c425520cadf361974b763086948cff7b7df62a8ed",
    "mode": "100700"
  },
  "syslinux/menu.cfg": {
    "hash": "bd9f84f3b938f336c2948779246f75feeb5f4af2d5d78c4932dd2a0b69a8d543",
    "mode": "100700"
  },
  "syslinux/f8.txt": {
    "hash": "0fa068a91b96048f70c5d53060d0673ab4eb815c712317363f87901900eb01d9",
    "mode": "100700"
  },
  "syslinux/f2.txt": {
    "hash": "605fdec56281a4eedb1e98090c60daeb1db593701070e3bdb84d6961d0431a20",
    "mode": "100700"
  },
  "syslinux/syslinux.cfg": {
    "hash": "2e257be9351b18d7361afd4555976c46bbcee6f85c37467c12828cffd4d89f59",
    "mode": "100700"
  },
  "syslinux/f10.txt": {
    "hash": "f00c82a22bd2a4d9b36749dee83f8b3b23b607944e25dd4a36a1a51eeb736c51",
    "mode": "100700"
  },
  "syslinux/tails.cfg": {
    "hash": "961db1c6288e5acefb9c7fe26dd79598862903eff677c151845fde3faeeb15b5",
    "mode": "100700"
  },
  "syslinux/vesamenu.c32": {
    "hash": "a249eae965e434ed712433587bc143a49f2459e371c24da3df83dfc845f091a9",
    "mode": "100700"
  },
  "syslinux/f6.txt": {
    "hash": "8506e93159c8a5efdd8d0c7cbbbe7f633854b0377cb875c1a50898ce3ce7e816",
    "mode": "100700"
  },
  "syslinux/ifcpu64.c32": {
    "hash": "5b371a4a75b7291c65a4686a62c3f08d56431982fbd302f6c64d6d43772572c4",
    "mode": "100700"
  },
  "syslinux/isolinux.bin": {
    "hash": "855ff5a729f4d581d38c71c6d32d2249081ea2df5a9ef1b215d107d38e4880f8",
    "mode": "100700"
  },
  "syslinux/boot.cat": {
    "hash": "b08c67d5501869ae6ac58bc355ab7bdccd6e669dc042eed155c42d58628eae46",
    "mode": "100700"
  },
  "syslinux/f1.txt": {
    "hash": "24973ca0b507a155a29aafa78c5bd562027136519c22d98ff99ac455dedcef9f",
    "mode": "100700"
  },
  "syslinux/libcom32.c32": {
    "hash": "ae8cade63d950c6ff5f22ea3360a580639818ce27161538e2b2785df2ba1cd4a",
    "mode": "100700"
  },
  "syslinux/live.cfg": {
    "hash": "d48f471ded261c43141ead99eb679a0be24c7aedbc5409c3753aadf297a5eb5a",
    "mode": "100700"
  },
  "syslinux/f4.txt": {
    "hash": "184e3ebbed1d06debc64a932244df7ed45ff45d7ec357113bee5182c64920170",
    "mode": "100700"
  },
  "EFI": {
    "mode": "40700"
  },
  "EFI/BOOT": {
    "mode": "40700"
  },
  "EFI/BOOT/prdhcp.c32": {
    "hash": "3c1ff4163271bb070265ba679a38ff42a78f21fedc9ac306e61944ecf69c5f60",
    "mode": "100700"
  },
  "EFI/BOOT/f3.txt": {
    "hash": "014b28b4654d29b3da09b3a7f2da76b32bff60120ae62e4036d66360a1fadaa1",
    "mode": "100700"
  },
  "EFI/BOOT/linux.c32": {
    "hash": "3467502d8aafd54a7bc797ba8755d7f16aa2ac4e04e396331c2603e94171f932",
    "mode": "100700"
  },
  "EFI/BOOT/cpuidtest.c32": {
    "hash": "26d8f19003d4fe1f923d69930ac00cd4a57cf76e746c23217f76f7f2a80c7269",
    "mode": "100700"
  },
  "EFI/BOOT/cmenu.c32": {
    "hash": "0f2469e37d485498f46201483ee93ac3771c750770cefbde4f92ae584e2abb48",
    "mode": "100700"
  },
  "EFI/BOOT/poweroff.c32": {
    "hash": "dc97822802fa2a594d4ccc552e3cd34aa24a0c1fb9a361104bf5da673e8970f4",
    "mode": "100700"
  },
  "EFI/BOOT/f7.txt": {
    "hash": "92659653110ae196c988cc4db1c5ffb9f3a4a7206ba58846efa8f30d9571eda3",
    "mode": "100700"
  },
  "EFI/BOOT/sdi.c32": {
    "hash": "4de7ed5c6a4711f6ddcfcf97a90f523ae98bf69ada9bbc791827fa77eb8d0e99",
    "mode": "100700"
  },
  "EFI/BOOT/ldlinux.c32": {
    "hash": "404e5a93f2af2c723a3e2ff494dbcbb74519eac515831145d79166aacce149ff",
    "mode": "100700"
  },
  "EFI/BOOT/dmi.c32": {
    "hash": "7d5f9ac2d592653ff764ba62e973a2f9c4671b6525d83db0d3ee1bd7bc1c6029",
    "mode": "100700"
  },
  "EFI/BOOT/vesa.c32": {
    "hash": "8f5dcccffd847fe60acf57624461d370f911515a0173560dd294a1b1b6b02ebb",
    "mode": "100700"
  },
  "EFI/BOOT/lfs.c32": {
    "hash": "1b8ddb2e8e375d5620cea8dd6019ce03fca91fe94013bad28fb6deb04c895eba",
    "mode": "100700"
  },
  "EFI/BOOT/libutil.c32": {
    "hash": "b88631a3031a3f8c01f4a8174c4809639a19d86d8d4add91152b6c67e8963bcb",
    "mode": "100700"
  },
  "EFI/BOOT/pmload.c32": {
    "hash": "11f8621979d78a7bd14a7849f74c6eaf39077c48e6720c9ba4a9a77ec9917f5e",
    "mode": "100700"
  },
  "EFI/BOOT/pcitest.c32": {
    "hash": "72699e761a16d9b33a7425586f1e0da0388a3c7699abcdf26a2613af3f944fd8",
    "mode": "100700"
  },
  "EFI/BOOT/gpxecmd.c32": {
    "hash": "82494ae8427b960cecc9ae23f2cfb4a3258eade07a5a34995c9d70efc72bdaa4",
    "mode": "100700"
  },
  "EFI/BOOT/cmd.c32": {
    "hash": "7c938562fe23b41e6c4039d2fbbdc7e20f7135027b7f21f2143773b2cc909228",
    "mode": "100700"
  },
  "EFI/BOOT/liveamd64.cfg": {
    "hash": "85d9a8c39159949f8f04c1e9a4b7502b8069e5516ecbdcabdb4b048be05a01f4",
    "mode": "100700"
  },
  "EFI/BOOT/meminfo.c32": {
    "hash": "555d6199405885b49f55da3da8043e3fba26a692cbad13bed87715f0822b5eae",
    "mode": "100700"
  },
  "EFI/BOOT/lua.c32": {
    "hash": "6b23045d95c432dbf251d0a34b055ec1b3dc522e5015ccd7fdfa9dce6191fd61",
    "mode": "100700"
  },
  "EFI/BOOT/kontron_wdt.c32": {
    "hash": "aa240c93023b7542321e98dc8e0bcb80bdcb4c1bbc2f3fd2e57414d61f6c4f7f",
    "mode": "100700"
  },
  "EFI/BOOT/live486.cfg": {
    "hash": "08e1d5ed857e3088f62d4611dcf50d5308876e2bec5fa8e315a05c2ad9019ef6",
    "mode": "100700"
  },
  "EFI/BOOT/ls.c32": {
    "hash": "11b2dd67ac1f08f5b55c5c5edaecb7b0e1183add817b59c41cca18fe98f733fa",
    "mode": "100700"
  },
  "EFI/BOOT/stdmenu.cfg": {
    "hash": "ad791606d556434d5094a6d19620d3eb6e4c7f74b43ee13fa1cd1665376c711b",
    "mode": "100700"
  },
  "EFI/BOOT/f5.txt": {
    "hash": "09f4d88e269b23129c004dfb382c8d899f2c3644b0961b4273a2bb453b4d24ab",
    "mode": "100700"
  },
  "EFI/BOOT/hexdump.c32": {
    "hash": "7304db9c6562504715059d0f9e09fabc3322250b25dbe87c34bb80269575ebf9",
    "mode": "100700"
  },
  "EFI/BOOT/splash.png": {
    "hash": "00593e8f8db8d1e43be74008e4e2af286b200a2626a7bd08ec500377a54dcfc9",
    "mode": "100700"
  },
  "EFI/BOOT/bootia32.efi": {
    "hash": "1d24c90f02b8b0c18816fe97789138e28fe6734f4a413d9e1f106ac2a2a77fd8",
    "mode": "100700"
  },
  "EFI/BOOT/chain.c32": {
    "hash": "9bc44a2631a5d599f08b758418fc3eab9b1669aecee1ef33aa1a55a0c74b3d47",
    "mode": "100700"
  },
  "EFI/BOOT/f9.txt": {
    "hash": "137c16870940e20edb3dbf5c425520cadf361974b763086948cff7b7df62a8ed",
    "mode": "100700"
  },
  "EFI/BOOT/menu.cfg": {
    "hash": "bd9f84f3b938f336c2948779246f75feeb5f4af2d5d78c4932dd2a0b69a8d543",
    "mode": "100700"
  },
  "EFI/BOOT/debug.c32": {
    "hash": "d29b86cb1ef1561e7b76e0f77a5d0a071fefd53ccd8eb6aefb330efc05823a78",
    "mode": "100700"
  },
  "EFI/BOOT/vesainfo.c32": {
    "hash": "aec35f319bfb032566669f2191b6fc37c0543a582af93e04a6b9a227dbbfe8f7",
    "mode": "100700"
  },
  "EFI/BOOT/ifmemdsk.c32": {
    "hash": "f9538b365f3e9913056bc4eb8b46ac9c7ce1a258e0b6b2e482a2f81010374dba",
    "mode": "100700"
  },
  "EFI/BOOT/ifplop.c32": {
    "hash": "01306b2f986d0dc6a2a03da2b7f915c60b3d0ce9224242c87069b7e4d835520a",
    "mode": "100700"
  },
  "EFI/BOOT/cpu.c32": {
    "hash": "622effb2e9aaadbcb83041551696fa19f2c7bb5b3c9662c87e2c9ee9499e109f",
    "mode": "100700"
  },
  "EFI/BOOT/f8.txt": {
    "hash": "0fa068a91b96048f70c5d53060d0673ab4eb815c712317363f87901900eb01d9",
    "mode": "100700"
  },
  "EFI/BOOT/f2.txt": {
    "hash": "605fdec56281a4eedb1e98090c60daeb1db593701070e3bdb84d6961d0431a20",
    "mode": "100700"
  },
  "EFI/BOOT/gfxboot.c32": {
    "hash": "5d2ffbcfa9db746d2b047a9ce2986b2c90442a9f0f39a3c6e4c899945aac6d40",
    "mode": "100700"
  },
  "EFI/BOOT/bootx64.efi": {
    "hash": "de9b7b8332ee0c8a6d3a9108d9ecb6d8a6ba6c1e8d1c42c88b31ae21709b0fd2",
    "mode": "100700"
  },
  "EFI/BOOT/f10.txt": {
    "hash": "f00c82a22bd2a4d9b36749dee83f8b3b23b607944e25dd4a36a1a51eeb736c51",
    "mode": "100700"
  },
  "EFI/BOOT/cptime.c32": {
    "hash": "aa0f1dbf9c67ce58e686a53748844a98e1f58c47c3385fd2621ccea0ac6d70a1",
    "mode": "100700"
  },
  "EFI/BOOT/vpdtest.c32": {
    "hash": "d583597f9c331213fc0610f4affb113e0ef3ab4be5fe0b8158fc4bb0283b3407",
    "mode": "100700"
  },
  "EFI/BOOT/pxechn.c32": {
    "hash": "568cbe97ef962e6b9069ade809c97428f67c29cd33dfd64e6b2ec37c02ef3ff8",
    "mode": "100700"
  },
  "EFI/BOOT/tails.cfg": {
    "hash": "961db1c6288e5acefb9c7fe26dd79598862903eff677c151845fde3faeeb15b5",
    "mode": "100700"
  },
  "EFI/BOOT/vesamenu.c32": {
    "hash": "2ba4ae21eb5635cbaf27327375e13960334a8e92cf9a201efc2674a8f68b82ad",
    "mode": "100700"
  },
  "EFI/BOOT/f6.txt": {
    "hash": "8506e93159c8a5efdd8d0c7cbbbe7f633854b0377cb875c1a50898ce3ce7e816",
    "mode": "100700"
  },
  "EFI/BOOT/zzjson.c32": {
    "hash": "d6eec900a9d5962d340642a2505b8d15a5a541d82cadbd4010dd5b9881d71d6a",
    "mode": "100700"
  },
  "EFI/BOOT/ifcpu64.c32": {
    "hash": "ac29f360c29a00511dd67f4192ada21af4690a8b8c7835f70f4fcb78259b3c84",
    "mode": "100700"
  },
  "EFI/BOOT/whichsys.c32": {
    "hash": "ec73a3bd3bd8a91edac372de14b3ec2e92cb743e0f877d627f833f58c88ebd46",
    "mode": "100700"
  },
  "EFI/BOOT/liblua.c32": {
    "hash": "506e80ce54e31ded395028c862568852994c61122f42c053df635fa3431cc62d",
    "mode": "100700"
  },
  "EFI/BOOT/sanboot.c32": {
    "hash": "6c1e85ce31508a1f3b187221728931f95405e30db743b09e695300a29ffe8816",
    "mode": "100700"
  },
  "EFI/BOOT/isolinux.bin": {
    "hash": "fffb05b8fe457ff99082cc929a2568eaabecbf9bbb4c00e639155fd48a24f1f9",
    "mode": "100700"
  },
  "EFI/BOOT/config.c32": {
    "hash": "3e6ced0032da71b7f91c9eb4a855f5aaf77d9757e42b880d8cdc9981bf9c0ca0",
    "mode": "100700"
  },
  "EFI/BOOT/elf.c32": {
    "hash": "f54532059044736e95a7835ef64aad74102cf899cf543054473fd7a5ad7c71d1",
    "mode": "100700"
  },
  "EFI/BOOT/isolinux.cfg": {
    "hash": "2e257be9351b18d7361afd4555976c46bbcee6f85c37467c12828cffd4d89f59",
    "mode": "100700"
  },
  "EFI/BOOT/f1.txt": {
    "hash": "24973ca0b507a155a29aafa78c5bd562027136519c22d98ff99ac455dedcef9f",
    "mode": "100700"
  },
  "EFI/BOOT/sysdump.c32": {
    "hash": "8930b9747faf08a0f12c32aed99a6263060de2414cb08f152773ee8c5117d0cd",
    "mode": "100700"
  },
  "EFI/BOOT/kbdmap.c32": {
    "hash": "d35245bc986d1cdd06196808568060a57a539f2d516d8be54bb542e45d801ced",
    "mode": "100700"
  },
  "EFI/BOOT/libcom32.c32": {
    "hash": "cf10c31d6f13b5ff0d358618cfef6836876751051f60f7fec15984a1844049ee",
    "mode": "100700"
  },
  "EFI/BOOT/bootx64.png": {
    "hash": "c21d398d8472dbcc043bebc360cea83b1fb8a20011d9198fdc8272d8a86fa467",
    "mode": "100700"
  },
  "EFI/BOOT/live.cfg": {
    "hash": "d48f471ded261c43141ead99eb679a0be24c7aedbc5409c3753aadf297a5eb5a",
    "mode": "100700"
  },
  "EFI/BOOT/rosh.c32": {
    "hash": "8339354e2825986cf3a2a43b7513179d8c28b1da99f652de8e07db5cbe3d7ac7",
    "mode": "100700"
  },
  "EFI/BOOT/disk.c32": {
    "hash": "e39c1258eb24b046aa13dbb60ae7c251486754eaa466404e1211fe37ec131ce4",
    "mode": "100700"
  },
  "EFI/BOOT/libmenu.c32": {
    "hash": "1f7780e98241f5448bdbbf75c852c70d9d8a59a8758fa44c3fcd844d1773e553",
    "mode": "100700"
  },
  "EFI/BOOT/cat.c32": {
    "hash": "13d2e8f58bd9219f7a94051c8189f67f7ae60e30874614fb87e30957d94b3b78",
    "mode": "100700"
  },
  "EFI/BOOT/libgpl.c32": {
    "hash": "72173485f5a554c686d1c4a7cdc8ebc70a271e7888ae9e294c193119301454d6",
    "mode": "100700"
  },
  "EFI/BOOT/cpuid.c32": {
    "hash": "9fe62124a2617da71c6a078a8bfa0d885040d4c9456e2c717427e75bf65e60be",
    "mode": "100700"
  },
  "EFI/BOOT/reboot.c32": {
    "hash": "fbbc3bc788a6f3bdd521c220a2ed1546669da9ddbdcefa7bcc8e266b263a156a",
    "mode": "100700"
  },
  "EFI/BOOT/ldlinux.e64": {
    "hash": "894a8c8f30b0c9d4f49076c486403ba7db4ec3b01bcb26efbffffb1e684c2834",
    "mode": "100700"
  },
  "EFI/BOOT/syslinux.c32": {
    "hash": "c8c4760e2f2c5c6a70b20ab694849ca8bdaf611f924789e5e631b7609666910b",
    "mode": "100700"
  },
  "EFI/BOOT/mboot.c32": {
    "hash": "d4589a55ebb1ecd8f5a26e2c6a003560e4a9c7b65f1f1717cc3564513278b1a9",
    "mode": "100700"
  },
  "EFI/BOOT/pwd.c32": {
    "hash": "28874dd84868771a15605493d227eeaa3aeeaaefaef9613942f2b16768aef539",
    "mode": "100700"
  },
  "EFI/BOOT/dmitest.c32": {
    "hash": "6564362b3d5be82ca60edbc55693be2496ac485e1a15d9d1a27eb73e7cc96fc7",
    "mode": "100700"
  },
  "EFI/BOOT/ifcpu.c32": {
    "hash": "378ee66bc07cde0e781db2ae14ef89c8314e8c0ca6ac9b26bdb6223a51b03075",
    "mode": "100700"
  },
  "EFI/BOOT/host.c32": {
    "hash": "59ae225aa1d27efc894f9651f6de7fa4e414dead35712b85e7e8521f0c6b0023",
    "mode": "100700"
  },
  "EFI/BOOT/dhcp.c32": {
    "hash": "394397279df779f51b4b6cafe3273a76f9765fc37bd963b7a0978926209e4054",
    "mode": "100700"
  },
  "EFI/BOOT/f4.txt": {
    "hash": "184e3ebbed1d06debc64a932244df7ed45ff45d7ec357113bee5182c64920170",
    "mode": "100700"
  },
  "EFI/BOOT/pci.c32": {
    "hash": "e2e119fb3c38f4a85889d3f3f8be3433dcb7318d6ac1a80cbc5d22bb57e892b3",
    "mode": "100700"
  },
  "EFI/BOOT/hdt.c32": {
    "hash": "4bf75d51b4f50086195b39ca0463ee7c468e1b5ae5f4faf7c25245768acbd033",
    "mode": "100700"
  },
  "EFI/BOOT/ethersel.c32": {
    "hash": "86782dae8e5aa03b27feb889512bff70e878c949e077240a7fbc4f6d45f79b88",
    "mode": "100700"
  },
  "EFI/BOOT/menu.c32": {
    "hash": "d974e00306ef482ade8e66df9bcc377df237d41f7c5bf42e264901abc5c30880",
    "mode": "100700"
  },
  "EFI/BOOT/grub": {
    "mode": "40700"
  },
  "EFI/BOOT/grub/grub.cfg": {
    "hash": "da6a5fccd75f90fea856ef950799853cedc55c7840bf47d7cddfa9be37cd82f4",
    "mode": "100700"
  },
  "EFI/BOOT/grub/i386-efi": {
    "mode": "40700"
  },
  "EFI/BOOT/grub/i386-efi/gcry_cast5.mod": {
    "hash": "171ae575f2368ca27aa3dfbf3a0278d3a06ea532c17a1ab20b800926368105e7",
    "mode": "100700"
  },
  "EFI/BOOT/grub/i386-efi/gcry_des.mod": {
    "hash": "ceb69f267fe931d63cd352103e7a02f069a4ab602220f29a4abfb26d063e7c52",
    "mode": "100700"
  },
  "EFI/BOOT/grub/i386-efi/read.mod": {
    "hash": "559bbfd3b3df26ed15bf74c89bb1cd59a7463218e18c1f9d0b2a3f199a999f5d",
    "mode": "100700"
  },
  "EFI/BOOT/grub/i386-efi/lsefisystab.mod": {
    "hash": "0817f832ada100161b53051b23a41aad07e57be8a6d58333d6f14a2b0b55d83e",
    "mode": "100700"
  },
  "EFI/BOOT/grub/i386-efi/offsetio.mod": {
    "hash": "6fedc9c9b5529732edccd95d30e827fd74b84e85092da7d16dc7114c598b51e7",
    "mode": "100700"
  },
  "EFI/BOOT/grub/i386-efi/archelp.mod": {
    "hash": "1dc42a326d7b11c4d69e8764358b88d3455c0d6d138097bca1116139c2c245cc",
    "mode": "100700"
  },
  "EFI/BOOT/grub/i386-efi/xnu_uuid.mod": {
    "hash": "a85e94c6686c2a227d29c442893582f9692c86f5213bb30670579b89fc77e25a",
    "mode": "100700"
  },
  "EFI/BOOT/grub/i386-efi/mdraid1x.mod": {
    "hash": "aa8b1c30204a15f5529e80dd47d8559e1c87f15e3be47ed6e048866779976c4b",
    "mode": "100700"
  },
  "EFI/BOOT/grub/i386-efi/ufs1.mod": {
    "hash": "971dd67f5951f0692470196771a03965012216292afd577c7a7dfb3c676d8f3a",
    "mode": "100700"
  },
  "EFI/BOOT/grub/i386-efi/raid6rec.mod": {
    "hash": "1494b99a487182de9768c36a56af16ae1ab57c533aa1aba128245d3a78d5e0c0",
    "mode": "100700"
  },
  "EFI/BOOT/grub/i386-efi/videotest_checksum.mod": {
    "hash": "5cdca70d72566851ee4101debd9bc39277a3fe5a385b0734b5942bdcca802866",
    "mode": "100700"
  },
  "EFI/BOOT/grub/i386-efi/video.mod": {
    "hash": "deb4959466429ffaa57966be0abce7682f47953198e4680f00b8c605aa1828cd",
    "mode": "100700"
  },
  "EFI/BOOT/grub/i386-efi/net.mod": {
    "hash": "969cdb2ffb7fe34dda8ec9b90d92aa5381fc3f678b16a166790b2219ffd123f8",
    "mode": "100700"
  },
  "EFI/BOOT/grub/i386-efi/dm_nv.mod": {
    "hash": "72a46c78b3cb4ef16da8a85aabc425a0118b7d261e3bd9a9c892f1819fc66c9d",
    "mode": "100700"
  },
  "EFI/BOOT/grub/i386-efi/verify.mod": {
    "hash": "da79a016e4fc844806a9bd899aeacb6bc61fce1ca9de2c646d4b5803ff60bb03",
    "mode": "100700"
  },
  "EFI/BOOT/grub/i386-efi/squash4.mod": {
    "hash": "ecb471eae3c0702f558a57a000922e1812a263cadf4816245a5f6da87458b3dd",
    "mode": "100700"
  },
  "EFI/BOOT/grub/i386-efi/relocator.mod": {
    "hash": "6bc5a013cfa09fe41639605e852c1723c437b66586b11d488edefdfc6543f5b0",
    "mode": "100700"
  },
  "EFI/BOOT/grub/i386-efi/mpi.mod": {
    "hash": "28516b9c8d65d62243947dddecda3e61c323a2b514f0321111a139702b8e94ac",
    "mode": "100700"
  },
  "EFI/BOOT/grub/i386-efi/ls.mod": {
    "hash": "6f122a7f94b89719a593af6561d5581ed5e0e8c5d82d043646f9b596677e891c",
    "mode": "100700"
  },
  "EFI/BOOT/grub/i386-efi/true.mod": {
    "hash": "95b07553b28472c85685dcd1dc4efc72e70531db031c61ef7f800c2a68706e60",
    "mode": "100700"
  },
  "EFI/BOOT/grub/i386-efi/odc.mod": {
    "hash": "777f3ff9ee23436d640ddc8145189bf9632829497e065258663fd46857f47bc0",
    "mode": "100700"
  },
  "EFI/BOOT/grub/i386-efi/hashsum.mod": {
    "hash": "d310391a475df0c94adc50ef5be3eed3587978a787841c610104591146841b5c",
    "mode": "100700"
  },
  "EFI/BOOT/grub/i386-efi/minix3_be.mod": {
    "hash": "bfa2b7a368375e4552bbe37396281018e0e163ef6f557c1012ef715b9fa91382",
    "mode": "100700"
  },
  "EFI/BOOT/grub/i386-efi/bitmap_scale.mod": {
    "hash": "2284004ed0252fc98562c6485616f564c1044826c52e5b941a371b7ccc4c34f3",
    "mode": "100700"
  },
  "EFI/BOOT/grub/i386-efi/cbtable.mod": {
    "hash": "175bc0de62e7bf5bf6efacbf16576b894b03bf0c54f91037d386e517ef272bdd",
    "mode": "100700"
  },
  "EFI/BOOT/grub/i386-efi/terminal.mod": {
    "hash": "5c3bf3cea9f4fcccc6aaaddbfd45ce8056f897ccc6fff18b1e6b4a6e7f264ff0",
    "mode": "100700"
  },
  "EFI/BOOT/grub/i386-efi/at_keyboard.mod": {
    "hash": "608195519b920631cb7d96fb5a6f1dfb946c07787f0d582d85b450094287bb3f",
    "mode": "100700"
  },
  "EFI/BOOT/grub/i386-efi/hdparm.mod": {
    "hash": "30084159a62da84f68fd3ae13c80b02f89de4c6a23e5df3fb44317e9fab2d959",
    "mode": "100700"
  },
  "EFI/BOOT/grub/i386-efi/crypto.lst": {
    "hash": "1b766f38a94927fe9b7bc1e809f0363e778e14c601e800faea271a2e75d3fc43",
    "mode": "100700"
  },
  "EFI/BOOT/grub/i386-efi/trig.mod": {
    "hash": "a3498130dd32853bf974c713cf6d41ef723049654c013f8a5f5467754406b078",
    "mode": "100700"
  },
  "EFI/BOOT/grub/i386-efi/crc64.mod": {
    "hash": "caf0caee910fab477e6dbeeda4ce194baa67bf331113a075c243962f81758fcc",
    "mode": "100700"
  },
  "EFI/BOOT/grub/i386-efi/usbserial_common.mod": {
    "hash": "6c79b5961be1279406f190be5cfe0fe9507159f8e1ff494156235ef33c829c3c",
    "mode": "100700"
  },
  "EFI/BOOT/grub/i386-efi/cbmemc.mod": {
    "hash": "a60f10f10af98e87a5aa35c75a8500bc8d1c17658e662702c3bf4184810ddb29",
    "mode": "100700"
  },
  "EFI/BOOT/grub/i386-efi/ehci.mod": {
    "hash": "038135c1e4cc3db3a7070b8f2315c6cd31e21882e38bfcdb2c70b4d2ffd299e2",
    "mode": "100700"
  },
  "EFI/BOOT/grub/i386-efi/keylayouts.mod": {
    "hash": "a11268f886397621233095bee6431e23c9fadbb8e44df4773be1f1a67f84adb8",
    "mode": "100700"
  },
  "EFI/BOOT/grub/i386-efi/progress.mod": {
    "hash": "5ce5cdd7e3f624e221bb2ca5e675b94342085b35bcf8846d347bb2d61ea18dd4",
    "mode": "100700"
  },
  "EFI/BOOT/grub/i386-efi/testload.mod": {
    "hash": "95308f52893e127d5b008a7a20c3215991abfdc641f75b95d8bbe1f929a331f5",
    "mode": "100700"
  },
  "EFI/BOOT/grub/i386-efi/gcry_dsa.mod": {
    "hash": "74ed4f2fe1f15f2407d9bae040e07217cbb993b1839483baca3fc1087ab5156a",
    "mode": "100700"
  },
  "EFI/BOOT/grub/i386-efi/gcry_rfc2268.mod": {
    "hash": "fd3cb505bf0fecc17446fcfd40f4bcbf1ca2b5ec5ac4273767b61505a2de3e90",
    "mode": "100700"
  },
  "EFI/BOOT/grub/i386-efi/chain.mod": {
    "hash": "ec9be1676c96a744b9b586c65efc441521af6f525b02bf9b8105473f2052951c",
    "mode": "100700"
  },
  "EFI/BOOT/grub/i386-efi/png.mod": {
    "hash": "4c4388282cc234e9f4819b8bc66733b9ff9d538d7a67afe2405e095b88405ea5",
    "mode": "100700"
  },
  "EFI/BOOT/grub/i386-efi/legacycfg.mod": {
    "hash": "516e8bd45971a951a887c285ca98a0183cd1d5e94b4a0643d547081915cdf770",
    "mode": "100700"
  },
  "EFI/BOOT/grub/i386-efi/gcry_crc.mod": {
    "hash": "0713b6fe3e51b756b244d1b6fa063918b703bab550b9c8f584d410107428e6ee",
    "mode": "100700"
  },
  "EFI/BOOT/grub/i386-efi/partmap.lst": {
    "hash": "85a3d5f84d20723a27c1442b861be44fbf58a4525eefe2ccbb2b5f7ceb21e8be",
    "mode": "100700"
  },
  "EFI/BOOT/grub/i386-efi/memrw.mod": {
    "hash": "8232312878e91f0451d7744b3f44b5623795d0a042d28d9dba956bc431f891d4",
    "mode": "100700"
  },
  "EFI/BOOT/grub/i386-efi/memdisk.mod": {
    "hash": "7ac8d87de4f863e57434850563e5e5d086ead407db9f001c24328d0ab4290a2d",
    "mode": "100700"
  },
  "EFI/BOOT/grub/i386-efi/raid5rec.mod": {
    "hash": "c6677e5db5c9e627d05d7e495954bc6f3c049d28d6c4e5458bb5e2f5a5b72eb0",
    "mode": "100700"
  },
  "EFI/BOOT/grub/i386-efi/efifwsetup.mod": {
    "hash": "a9662d4719891a0fddbd8b15d304a48d90c1e062f711a2f905af6ff4ee6fb2bd",
    "mode": "100700"
  },
  "EFI/BOOT/grub/i386-efi/videoinfo.mod": {
    "hash": "6ac682a01bd10cddc3e175593db37c22700d724fa2d753f383a6eb3e806d79b2",
    "mode": "100700"
  },
  "EFI/BOOT/grub/i386-efi/part_apple.mod": {
    "hash": "7786a5713b9b2e00fe312346c237698eb4b3772350568b553d0fe801595282e5",
    "mode": "100700"
  },
  "EFI/BOOT/grub/i386-efi/tr.mod": {
    "hash": "6c6bdead7b4e058a628de04293193db69c1dadd67fc2fdb4d2544baacdd7e52b",
    "mode": "100700"
  },
  "EFI/BOOT/grub/i386-efi/gcry_rsa.mod": {
    "hash": "f741047a4c243613e1fb8298c41d8aa94ae1c1f8839f6360fc03416d4acf3605",
    "mode": "100700"
  },
  "EFI/BOOT/grub/i386-efi/probe.mod": {
    "hash": "9118da80eaeae54d65471b177201799a6da28442027f5ba134970734c217504e",
    "mode": "100700"
  },
  "EFI/BOOT/grub/i386-efi/minix2_be.mod": {
    "hash": "214755e168ab5833d633757d702a9933ac85dffd12618de7bec68e9beeb7fbee",
    "mode": "100700"
  },
  "EFI/BOOT/grub/i386-efi/geli.mod": {
    "hash": "b59956d266478786fd0389560baffc04c3364fa615205418e2128c31bff0bdb8",
    "mode": "100700"
  },
  "EFI/BOOT/grub/i386-efi/multiboot2.mod": {
    "hash": "46b05b4d593ee7fa49511e963a1a2c18ca24476f7deb3c40b264a6198ce043b1",
    "mode": "100700"
  },
  "EFI/BOOT/grub/i386-efi/hfsplus.mod": {
    "hash": "ea0c40875621d060154ae59c4452b2f0d725cb2d768b91ac382c417ffc7a82a0",
    "mode": "100700"
  },
  "EFI/BOOT/grub/i386-efi/lsefimmap.mod": {
    "hash": "0fc047b6dded1753160b05c38fde4a1c8de95d31b2aa6cca7a0c570328ddddb3",
    "mode": "100700"
  },
  "EFI/BOOT/grub/i386-efi/gcry_md4.mod": {
    "hash": "e012f73377bcfced56daafe51f69c14a142d0772f75a14ffccff88196201c397",
    "mode": "100700"
  },
  "EFI/BOOT/grub/i386-efi/gcry_arcfour.mod": {
    "hash": "e2310a7caa637f7e2da741c706cdc16d171ad26c44587dd56d870d32de18dd8f",
    "mode": "100700"
  },
  "EFI/BOOT/grub/i386-efi/password_pbkdf2.mod": {
    "hash": "362abf246d22c4b9aa0cb24fdc98677d45e774fb6d50471fdacf57f3833ede95",
    "mode": "100700"
  },
  "EFI/BOOT/grub/i386-efi/multiboot.mod": {
    "hash": "0f9414bc249fb4c1630462ae380fcc7c6a4231ce132aa088744aea5ab5104419",
    "mode": "100700"
  },
  "EFI/BOOT/grub/i386-efi/datetime.mod": {
    "hash": "99f8d7ba9879f8b3ef8c684dc21bf7c91ad48361b72444027ac79966e108ddbe",
    "mode": "100700"
  },
  "EFI/BOOT/grub/i386-efi/legacy_password_test.mod": {
    "hash": "411988060915bab3ff6473cd0dd6ae23bf466120f86384c9502bad165df89988",
    "mode": "100700"
  },
  "EFI/BOOT/grub/i386-efi/ufs1_be.mod": {
    "hash": "b048d632c462994c885c85425e30a1cf4b75c9add19bf2051e86d15ed7cd1fc7",
    "mode": "100700"
  },
  "EFI/BOOT/grub/i386-efi/test.mod": {
    "hash": "d422d40e8ddb6db92adc1c2ea7065ac88cbb6a874c63f5ec5107768f70184fec",
    "mode": "100700"
  },
  "EFI/BOOT/grub/i386-efi/cat.mod": {
    "hash": "20b367c904dda6165e9ae2c8303a102fb1468f2522ac4a29ec727a797ff8f429",
    "mode": "100700"
  },
  "EFI/BOOT/grub/i386-efi/usb_keyboard.mod": {
    "hash": "796b608f5bc6e3c5a28f702588ccf0688925887d3d8da6b18f4e4b51063c8c77",
    "mode": "100700"
  },
  "EFI/BOOT/grub/i386-efi/videotest.mod": {
    "hash": "7d9433460295f27009cacc194c63cf6c8f18d41f0d13f86b8a006b0cfea198d6",
    "mode": "100700"
  },
  "EFI/BOOT/grub/i386-efi/boot.mod": {
    "hash": "b3c9641719ad5261778893a766b71bc08711f193a42ba56e833fc2cfea691f07",
    "mode": "100700"
  },
  "EFI/BOOT/grub/i386-efi/password.mod": {
    "hash": "06056c96b4dbd55ad9240caf1c989a801601a3ca5c640fc5944150305a0d29f0",
    "mode": "100700"
  },
  "EFI/BOOT/grub/i386-efi/aout.mod": {
    "hash": "2559609272c00678d5c8dbab3f21bf794a458cbb8656aeb71316c9669a29e368",
    "mode": "100700"
  },
  "EFI/BOOT/grub/i386-efi/gfxterm_background.mod": {
    "hash": "57da8da583effe08d141990b49a57a747bdd445fe344fc43118d7f914d54fccd",
    "mode": "100700"
  },
  "EFI/BOOT/grub/i386-efi/play.mod": {
    "hash": "7a8e550a3f808de562b17f1290709fc1b055e441db13400b3d43e1ce06ab6f2a",
    "mode": "100700"
  },
  "EFI/BOOT/grub/i386-efi/http.mod": {
    "hash": "dd912bd799e06c84f729337d2b2c7ee322466a5efc318ac21ea82451abcab41d",
    "mode": "100700"
  },
  "EFI/BOOT/grub/i386-efi/spkmodem.mod": {
    "hash": "5a305a085b17c433d9a9c9eb045e3953a5d56b375320dae245a2969752aed573",
    "mode": "100700"
  },
  "EFI/BOOT/grub/i386-efi/fat.mod": {
    "hash": "0db9f598e283c45063248ce425a1df0fddc9a3e872be6ec0e39a98e25587c18d",
    "mode": "100700"
  },
  "EFI/BOOT/grub/i386-efi/test_blockarg.mod": {
    "hash": "125bab99dc75118898c91dad885f25e28c8a3e31e965a04e1ac1dcb7911f11f8",
    "mode": "100700"
  },
  "EFI/BOOT/grub/i386-efi/udf.mod": {
    "hash": "27909d76f3f1c5f16d4d7539675a0b396f938d81937d09185dc8e6c323ff868b",
    "mode": "100700"
  },
  "EFI/BOOT/grub/i386-efi/efi_uga.mod": {
    "hash": "e90284d6b72a29e4f8ca9738e592e45fb6c2b01e39c99b80be133c2e743f67a0",
    "mode": "100700"
  },
  "EFI/BOOT/grub/i386-efi/gcry_whirlpool.mod": {
    "hash": "4bdd49a407ff00e2d30a14d6947b5f104df7da6236a99b0ab2902ff67575a219",
    "mode": "100700"
  },
  "EFI/BOOT/grub/i386-efi/mdraid09_be.mod": {
    "hash": "dedac0e8a6e38d827b6e0c99d55456c7e2b593e92eb724aa9d06619a91ba0b65",
    "mode": "100700"
  },
  "EFI/BOOT/grub/i386-efi/loopback.mod": {
    "hash": "412d2f2dafaa5d55bbae2d5c73034ca32142c2bb32b2952437f967edaca5a17c",
    "mode": "100700"
  },
  "EFI/BOOT/grub/i386-efi/gfxmenu.mod": {
    "hash": "fc2a29d028dcf553f4d1c4a9ae173843c47fb27e606bb3d82d4fa27bf3c46fb0",
    "mode": "100700"
  },
  "EFI/BOOT/grub/i386-efi/parttool.mod": {
    "hash": "dc6b7322d0fd13017a8ab5b9f0b94a332c6dfd0e1f788ad4f31ef59b65777398",
    "mode": "100700"
  },
  "EFI/BOOT/grub/i386-efi/cmdline_cat_test.mod": {
    "hash": "f5875d58b3c8befd9ba2b58edf458f93af089065f1a975cacc1de8898dff2788",
    "mode": "100700"
  },
  "EFI/BOOT/grub/i386-efi/pata.mod": {
    "hash": "a4cba3fc1c938de84d8bc6d25e162ebd37014297ad2a27989ee9f7a5bee9617e",
    "mode": "100700"
  },
  "EFI/BOOT/grub/i386-efi/loadenv.mod": {
    "hash": "8fc6dcc47600ff1609453dad485b6a4bbed9c1c773e78e7e4541fbe87a5c723f",
    "mode": "100700"
  },
  "EFI/BOOT/grub/i386-efi/jpeg.mod": {
    "hash": "cf6630e78baa4f4ceac96e9e7b3d3595dc9bcd45f501f3fc5425f2ef9b4cf97c",
    "mode": "100700"
  },
  "EFI/BOOT/grub/i386-efi/lspci.mod": {
    "hash": "620f8bebeab6fa0d74026b9337b0bd74d2a633a60c8c32ae82f3744981a4fd9a",
    "mode": "100700"
  },
  "EFI/BOOT/grub/i386-efi/setpci.mod": {
    "hash": "81d99c497bdcace0f487952c06d517188b04ac9995205d31e201cea13e168ca2",
    "mode": "100700"
  },
  "EFI/BOOT/grub/i386-efi/ufs2.mod": {
    "hash": "4698a77ff4cefc24d46aaac8d8d80c016b70185b214908bc9a1b92121174ba79",
    "mode": "100700"
  },
  "EFI/BOOT/grub/i386-efi/xnu_uuid_test.mod": {
    "hash": "c82bb50763ebc744b31acb8cd516821a736e57c108b5f61ad64a309a5f012c26",
    "mode": "100700"
  },
  "EFI/BOOT/grub/i386-efi/romfs.mod": {
    "hash": "c43795d49fb086560949e32e07da85592a7c23e9ac448982824f49d175a54756",
    "mode": "100700"
  },
  "EFI/BOOT/grub/i386-efi/backtrace.mod": {
    "hash": "33b32a4dbbd7fc1b5b508e9904bd8cfbdafbe7e931429ff628d00e76c7f27123",
    "mode": "100700"
  },
  "EFI/BOOT/grub/i386-efi/part_msdos.mod": {
    "hash": "824f49cd305e836e8a9b373d465200710eafc27de411179f2073a9c04e9b7b37",
    "mode": "100700"
  },
  "EFI/BOOT/grub/i386-efi/setjmp.mod": {
    "hash": "839f3aca233bd317cc8b7fc0e7914b73e36b7f2545847b4e6a07a469621984d6",
    "mode": "100700"
  },
  "EFI/BOOT/grub/i386-efi/minicmd.mod": {
    "hash": "069381a081a09803bd41c12a7e5a7b961b7b32c8c6cf5deacfa4bd74bfb06d12",
    "mode": "100700"
  },
  "EFI/BOOT/grub/i386-efi/efi_gop.mod": {
    "hash": "7e7e48de26ede65c1fbcc693f0b291b491a86edbd9d1d5ac4bcfa2aa172551a4",
    "mode": "100700"
  },
  "EFI/BOOT/grub/i386-efi/lsacpi.mod": {
    "hash": "c05c02892607460a194497a197fc3f0889967c73df84b7b30608cdd919c5a2bf",
    "mode": "100700"
  },
  "EFI/BOOT/grub/i386-efi/cbfs.mod": {
    "hash": "500d6eac1c0d05842c2bb32bebc54b8e6931fcb6a6c0fb7e3f6540e0ecbd5d80",
    "mode": "100700"
  },
  "EFI/BOOT/grub/i386-efi/help.mod": {
    "hash": "201382c3aed7bc9b543bc9e53dad2508f561cd1d366a43e8bd617e6b166d44e4",
    "mode": "100700"
  },
  "EFI/BOOT/grub/i386-efi/moddep.lst": {
    "hash": "84f3d846dd07d22b192bc899b3b404d17d660521656c167fa341770695259281",
    "mode": "100700"
  },
  "EFI/BOOT/grub/i386-efi/luks.mod": {
    "hash": "6b26f2610a4e851af10ec2eea3ec665aacb28d9c0b4dd3f3c31693c89e45dce7",
    "mode": "100700"
  },
  "EFI/BOOT/grub/i386-efi/nativedisk.mod": {
    "hash": "ca0ff635c942d783e7632a3bd794b69de483295242a03dbe1cae8da2c013e46f",
    "mode": "100700"
  },
  "EFI/BOOT/grub/i386-efi/fs.lst": {
    "hash": "49e674290325ee0a73f1ab03b89f59568eaa2f8aacbe0b2cc76e705548172d8f",
    "mode": "100700"
  },
  "EFI/BOOT/grub/i386-efi/iso9660.mod": {
    "hash": "d1992f94580cec94307fff9bf63372da8569568b65a9fc333b162cd261482737",
    "mode": "100700"
  },
  "EFI/BOOT/grub/i386-efi/scsi.mod": {
    "hash": "8e5ac784b51608429cd6bc1fed5a6989a367a70b253215752b78e9d897097026",
    "mode": "100700"
  },
  "EFI/BOOT/grub/i386-efi/lssal.mod": {
    "hash": "139f3d00eb40f7051457758a9d0df22023f3472f09efae29cf06cb5669bbf622",
    "mode": "100700"
  },
  "EFI/BOOT/grub/i386-efi/halt.mod": {
    "hash": "830f24436d4e9c54c576469d6bacc855df817d7d5f4b5b3e631fd0c323201498",
    "mode": "100700"
  },
  "EFI/BOOT/grub/i386-efi/uhci.mod": {
    "hash": "81393c77ff3993286947c3288c3318765e299f0f3e87d7962b232d26994a0afe",
    "mode": "100700"
  },
  "EFI/BOOT/grub/i386-efi/appleldr.mod": {
    "hash": "8ff8015ea4f85eaa8ac6640d2b6126b985499a33c48e65e3cee94e57e5a08a22",
    "mode": "100700"
  },
  "EFI/BOOT/grub/i386-efi/cpio.mod": {
    "hash": "e5c31436659d0dd199c981530b1d61ab2400e7d7a762b4e05edabaa98f1d861b",
    "mode": "100700"
  },
  "EFI/BOOT/grub/i386-efi/gcry_seed.mod": {
    "hash": "f9a80264a11f36daa24530e833b43dddc2221df388cec59045ab159c304bd8bb",
    "mode": "100700"
  },
  "EFI/BOOT/grub/i386-efi/terminal.lst": {
    "hash": "46f888c52f36baf9b62d60bc8d06426a314aad5a0ff86a4362a91c2512a1df9c",
    "mode": "100700"
  },
  "EFI/BOOT/grub/i386-efi/bufio.mod": {
    "hash": "ba310e798fdd3e58befd68ad2ecaa150a715eb5604828c4d8f015426374384f1",
    "mode": "100700"
  },
  "EFI/BOOT/grub/i386-efi/macbless.mod": {
    "hash": "a5822b7a1c3fe2b2f385cecff8db22ccbba457bd47d0252eb0be8df96b779f95",
    "mode": "100700"
  },
  "EFI/BOOT/grub/i386-efi/linux16.mod": {
    "hash": "5ff10410e8bdbb6e496bc8e92514c2c96bf9f3f75ab12825b62da4dd0e4d0760",
    "mode": "100700"
  },
  "EFI/BOOT/grub/i386-efi/normal.mod": {
    "hash": "bc1b1c14dff951b861973840106d85b1cbeb12e0b55798aa20b37ae7e1002262",
    "mode": "100700"
  },
  "EFI/BOOT/grub/i386-efi/macho.mod": {
    "hash": "a17c6e9f840797db0d81f81de462a363d47b3e81563f04fc3fe56fc77b7b41d7",
    "mode": "100700"
  },
  "EFI/BOOT/grub/i386-efi/minix2.mod": {
    "hash": "43295a62b10c5a3f0c9e05b0bf4800d2fa67114e18fa349fbffdcd36ccc6b82c",
    "mode": "100700"
  },
  "EFI/BOOT/grub/i386-efi/minix_be.mod": {
    "hash": "f39d35b6291977efc83ca198a5476f41e446f4fb16bb8aa872303fe7abdf4ad1",
    "mode": "100700"
  },
  "EFI/BOOT/grub/i386-efi/gdb.mod": {
    "hash": "c9fed4bbc0b108ec6aa144bc42aff6a5dde7fee49af170e56ad35a0bb9f742c4",
    "mode": "100700"
  },
  "EFI/BOOT/grub/i386-efi/video_fb.mod": {
    "hash": "c01e5199309a6b771493814fcfc2a467752f1bf9ebc1c41fbbc1ba59ecfa7aff",
    "mode": "100700"
  },
  "EFI/BOOT/grub/i386-efi/command.lst": {
    "hash": "2a8f3a51d9af0a3c6973ffbee773fec6ced7c4144cfc3dc9830b9343547064f0",
    "mode": "100700"
  },
  "EFI/BOOT/grub/i386-efi/pbkdf2_test.mod": {
    "hash": "72f184d4de86b442a377824aee53a712139893f411f3a20c1a591737ea82fd5c",
    "mode": "100700"
  },
  "EFI/BOOT/grub/i386-efi/reiserfs.mod": {
    "hash": "3d40a71318765a002f545ccf70a83633187e7e3c5196accec09398a07ccc3740",
    "mode": "100700"
  },
  "EFI/BOOT/grub/i386-efi/mdraid09.mod": {
    "hash": "713736893fcac8a2cbe15e55aad2f17cad61cafb1bc06c3c58de3d1cc046199e",
    "mode": "100700"
  },
  "EFI/BOOT/grub/i386-efi/time.mod": {
    "hash": "c60b97794109be4fcf92652fa9e3dcaa5408f3aa97028c5bf2049d820214a6de",
    "mode": "100700"
  },
  "EFI/BOOT/grub/i386-efi/morse.mod": {
    "hash": "b8f241a82ab8c6bbbb01d88e58d16aee246fcf6a5291132d1873f35439ff4540",
    "mode": "100700"
  },
  "EFI/BOOT/grub/i386-efi/gcry_sha512.mod": {
    "hash": "7dadac1efdf13c06cca3fad4d8d3ff4a48098781de38e12156a362778811e062",
    "mode": "100700"
  },
  "EFI/BOOT/grub/i386-efi/hfspluscomp.mod": {
    "hash": "d9daa6128e50c116041cf1161facfc32a2bd61edc89e0ffd035487ce3ead4dcf",
    "mode": "100700"
  },
  "EFI/BOOT/grub/i386-efi/loadbios.mod": {
    "hash": "daa53cbab354136ac89bc2ddc8a3897d41c255ed90b6ba736332c49e770f6111",
    "mode": "100700"
  },
  "EFI/BOOT/grub/i386-efi/ldm.mod": {
    "hash": "a9abcfb532fca0cf2e43777e8a4fa5395be0e2f3e8a1b3d33b09479b06d61746",
    "mode": "100700"
  },
  "EFI/BOOT/grub/i386-efi/lsmmap.mod": {
    "hash": "18ce52f220cb50246e1dfbc9128834a652fc1addb9f4678a7aa69be52316ba19",
    "mode": "100700"
  },
  "EFI/BOOT/grub/i386-efi/cs5536.mod": {
    "hash": "f26fa253ff6b3912fa0bc5c313f1cd34af63e26b85aa22b0cec3bf09cef0588f",
    "mode": "100700"
  },
  "EFI/BOOT/grub/i386-efi/gcry_rijndael.mod": {
    "hash": "02ea1ac8852928780b65b81e866acfd38bd86653e7bbe0046dcef3f9f1090900",
    "mode": "100700"
  },
  "EFI/BOOT/grub/i386-efi/usbserial_ftdi.mod": {
    "hash": "a0858227d2fe24aa6554d019f808f87e2aef43424e5d393400609f24d7ce350a",
    "mode": "100700"
  },
  "EFI/BOOT/grub/i386-efi/gcry_sha256.mod": {
    "hash": "07e9678865518071c1f1d3d2ef73b2bedc8073dd4db0aefc8bea1b93d8a03730",
    "mode": "100700"
  },
  "EFI/BOOT/grub/i386-efi/fixvideo.mod": {
    "hash": "663768caed113c46d8ef5d8fd46bf3d8ab45d90821d5882f42cf42686cd94883",
    "mode": "100700"
  },
  "EFI/BOOT/grub/i386-efi/cpuid.mod": {
    "hash": "9a8012c1d690be469a941725be3da97d7f272c507edd4378f8ba9b4c0a2ab91e",
    "mode": "100700"
  },
  "EFI/BOOT/grub/i386-efi/testspeed.mod": {
    "hash": "fe2d97ecc18c2495ed784ce98280616d07e77b1e51d0933e914b5e93f20867be",
    "mode": "100700"
  },
  "EFI/BOOT/grub/i386-efi/part_dvh.mod": {
    "hash": "8e6026fe1be6b791ff6d74fa26622bcba002ecc56dd5beeb2eb3e28c7569209e",
    "mode": "100700"
  },
  "EFI/BOOT/grub/i386-efi/cmp.mod": {
    "hash": "c0c1de89c61bac6a2e89f552ad43d376048a7878838c991b3b6d5a31d28a3cd2",
    "mode": "100700"
  },
  "EFI/BOOT/grub/i386-efi/serial.mod": {
    "hash": "194639aa54d4dd67301059b87a75d55ccc9d90320e281b70bf5c41d08ee55ed3",
    "mode": "100700"
  },
  "EFI/BOOT/grub/i386-efi/video_cirrus.mod": {
    "hash": "e53f30c98613ba63a2330dd3be250a8952f08ebb45a9945407d4ffde71ec6e63",
    "mode": "100700"
  },
  "EFI/BOOT/grub/i386-efi/iorw.mod": {
    "hash": "d56a5901cff8a89eb8c6c581f67889626760dcaf6428d073cbe1e45bb54a8c45",
    "mode": "100700"
  },
  "EFI/BOOT/grub/i386-efi/usbtest.mod": {
    "hash": "4723f49231500288cdf9ca0dea2e970581e6e235b056d66b30fcb952fc4e87a1",
    "mode": "100700"
  },
  "EFI/BOOT/grub/i386-efi/elf.mod": {
    "hash": "f6641131e4d4872cab348d12eb46f05352c3d84e78a4655ab1f737a7aadb349d",
    "mode": "100700"
  },
  "EFI/BOOT/grub/i386-efi/btrfs.mod": {
    "hash": "16fe899d9cb3579747f5e65c01c2cdd16e994df706d870791c9edd655bcc1af4",
    "mode": "100700"
  },
  "EFI/BOOT/grub/i386-efi/part_sunpc.mod": {
    "hash": "b588278c070a81e8b81da62ed98923ad7c0c79806cdaf7fcbf4877c62f5dd870",
    "mode": "100700"
  },
  "EFI/BOOT/grub/i386-efi/ext2.mod": {
    "hash": "5c682762899a880bea9655e29a4a6e25770ff642b6cda537a1cb85b30940dff1",
    "mode": "100700"
  },
  "EFI/BOOT/grub/i386-efi/efinet.mod": {
    "hash": "ce9227fe5bddc157701521ff21e442ccd7cf3261f3178956d8554b72d8f376e5",
    "mode": "100700"
  },
  "EFI/BOOT/grub/i386-efi/gcry_camellia.mod": {
    "hash": "caac8d84d3058520bf16edd01589a194637ea2a7e93022d8ddf5ebb540bc57b2",
    "mode": "100700"
  },
  "EFI/BOOT/grub/i386-efi/gptsync.mod": {
    "hash": "f1c403a797be68c640c354e7213c7179b3edf75a17d72601d4e791acc4ba2684",
    "mode": "100700"
  },
  "EFI/BOOT/grub/i386-efi/usbserial_pl2303.mod": {
    "hash": "d017057b3b8a4a3a001cdf517ebd3cab42ba72d9e129105a9ba4946512d4769f",
    "mode": "100700"
  },
  "EFI/BOOT/grub/i386-efi/gcry_rmd160.mod": {
    "hash": "68f078abee3507af4982cb14af44e53385dbd3cd3c85470a885e352c16927106",
    "mode": "100700"
  },
  "EFI/BOOT/grub/i386-efi/ahci.mod": {
    "hash": "a4013d87c4d318f2d428e97770734afa4fa0d8bd7bec9e4a2ae970d3b91cd02a",
    "mode": "100700"
  },
  "EFI/BOOT/grub/i386-efi/pbkdf2.mod": {
    "hash": "a7dac54a1cfbb4b7013ca7939c1f04397ec8cb68bb639e8073402e11a8ede94a",
    "mode": "100700"
  },
  "EFI/BOOT/grub/i386-efi/bfs.mod": {
    "hash": "0d7704a2707ce79e04f7509bfd608d93d0f30961e1c72db014bea2a46c41b244",
    "mode": "100700"
  },
  "EFI/BOOT/grub/i386-efi/usb.mod": {
    "hash": "9d6e26900a6b2aaefbf34c53912573c52ecfae5100db07228b73dc8806f3c6f3",
    "mode": "100700"
  },
  "EFI/BOOT/grub/i386-efi/xzio.mod": {
    "hash": "26c083b6de10a85a0d4328ec60c27fc648cf9507d5bfc3633e3e3319343fc365",
    "mode": "100700"
  },
  "EFI/BOOT/grub/i386-efi/mmap.mod": {
    "hash": "b15cbb547f1d95a20fdd2d7279d406a71232f27a04610cec25311a029dddbf3a",
    "mode": "100700"
  },
  "EFI/BOOT/grub/i386-efi/diskfilter.mod": {
    "hash": "7da05d34dd83bd7b9fc3ebe5efcd1ecd4194e630e04c64f5c8df6e47077c74ef",
    "mode": "100700"
  },
  "EFI/BOOT/grub/i386-efi/echo.mod": {
    "hash": "3bd225af6d3ec92db8c6c90f7974896b04c3d25b44eff07fcff4bf874fbd2fc5",
    "mode": "100700"
  },
  "EFI/BOOT/grub/i386-efi/usbms.mod": {
    "hash": "646ee9cb6c4b4bd681e3de2383e29dc296711f1c69797e9152d0a142182493e9",
    "mode": "100700"
  },
  "EFI/BOOT/grub/i386-efi/linuxefi.mod": {
    "hash": "f5a21a8525fa0809815b351541dea2f4ba6c62714e78b48c617e281de4544d55",
    "mode": "100700"
  },
  "EFI/BOOT/grub/i386-efi/bsd.mod": {
    "hash": "9c8ff435959b664681e18e32c0ef70c0d22f933c4cb57933f4651b3603d32801",
    "mode": "100700"
  },
  "EFI/BOOT/grub/i386-efi/sleep.mod": {
    "hash": "6fcbae55f5baed9f56bd401aa0e166d95c76c3fd79bd883e6d952edaefde0f64",
    "mode": "100700"
  },
  "EFI/BOOT/grub/i386-efi/priority_queue.mod": {
    "hash": "62b2d7180ff1a1402711b44023d4ad105b3416cb4977dec2304b8f6a6671bd54",
    "mode": "100700"
  },
  "EFI/BOOT/grub/i386-efi/syslinuxcfg.mod": {
    "hash": "94adf796807e49e88c01d94a5393d7b21243d1c0bb6bc264379bd61c8d31266b",
    "mode": "100700"
  },
  "EFI/BOOT/grub/i386-efi/acpi.mod": {
    "hash": "69fd5af941ef9acc7999f1129ac2e4473e12474180d6641aadc8d3e693da6fe0",
    "mode": "100700"
  },
  "EFI/BOOT/grub/i386-efi/gcry_md5.mod": {
    "hash": "1be44ff4aad04612a6988938647d669f680803a622741d34fae39051aeb28a08",
    "mode": "100700"
  },
  "EFI/BOOT/grub/i386-efi/blocklist.mod": {
    "hash": "68efd091cdf4ede9f02b1ca795d2ce8e8eba63f7f1dbf3969600653f17f3e480",
    "mode": "100700"
  },
  "EFI/BOOT/grub/i386-efi/xnu.mod": {
    "hash": "a55ead50622aeffeab43634e9f7794892f363383688ead82d878fa03666dbc4e",
    "mode": "100700"
  },
  "EFI/BOOT/grub/i386-efi/sleep_test.mod": {
    "hash": "4cfb739d950eab16be1ddf73d1d857d5e31879d5775940e5a1c0ad3cff67668b",
    "mode": "100700"
  },
  "EFI/BOOT/grub/i386-efi/tftp.mod": {
    "hash": "0de9448067c370182aae10c5a659f8088b60a5c52790cc09821f1a962c2b27d3",
    "mode": "100700"
  },
  "EFI/BOOT/grub/i386-efi/font.mod": {
    "hash": "8fff41fa0081a11ee7b4293e63757410e89d80b83edef39560a217948bad482b",
    "mode": "100700"
  },
  "EFI/BOOT/grub/i386-efi/signature_test.mod": {
    "hash": "de839317cc6eea4be153163fd166827ef75ab32821ae44a5ef1939b53f07bb9c",
    "mode": "100700"
  },
  "EFI/BOOT/grub/i386-efi/lzopio.mod": {
    "hash": "b27eaf94fb933a146e4a6609e22ab266d3f7c3c930c42f6a90058867ed5019d8",
    "mode": "100700"
  },
  "EFI/BOOT/grub/i386-efi/minix3.mod": {
    "hash": "edc0e65fb1b8beb81c8151a3817b666695c3733070985a4d36e93e4e18ae3678",
    "mode": "100700"
  },
  "EFI/BOOT/grub/i386-efi/ohci.mod": {
    "hash": "613c3ef45f292a9bfa0e83cd647c73e3280a1374be0d7052b7c22e342b7ac33a",
    "mode": "100700"
  },
  "EFI/BOOT/grub/i386-efi/cbtime.mod": {
    "hash": "fc3ba0e453fc2ee8bb580300bd56544b89d5844f61c62aa5bedc682ae53fafd4",
    "mode": "100700"
  },
  "EFI/BOOT/grub/i386-efi/procfs.mod": {
    "hash": "625dd8444c6e0316c2f0b89a4a85dab78b452d7ac04e51daa69c35ffe6e94e89",
    "mode": "100700"
  },
  "EFI/BOOT/grub/i386-efi/extcmd.mod": {
    "hash": "fb3b3640a84d41b0ad23414cb3452d7a435dfd5d9df19a94d606bb19976fb86a",
    "mode": "100700"
  },
  "EFI/BOOT/grub/i386-efi/xfs.mod": {
    "hash": "a7e614ed071a5a213fa07eeda8d26e47bfcb68b1ea0478c595f28bdb2792675f",
    "mode": "100700"
  },
  "EFI/BOOT/grub/i386-efi/parttool.lst": {
    "hash": "6de6036ef0dc8a908e4cc248ef1d8aab87172e722d8c5bad9e137fd43994e0fe",
    "mode": "100700"
  },
  "EFI/BOOT/grub/i386-efi/gfxterm_menu.mod": {
    "hash": "f7f9e864676136ca711367efd6aa42f2b90700449ae527502df3a341f51af050",
    "mode": "100700"
  },
  "EFI/BOOT/grub/i386-efi/exfat.mod": {
    "hash": "802bd8d1fe98069715d11f6e974ad2cebd2550578faee81ed3418826e5706309",
    "mode": "100700"
  },
  "EFI/BOOT/grub/i386-efi/disk.mod": {
    "hash": "3d998956f7121f939dc7a2670ef2f2e53e4083282fe4d218594820637bab1820",
    "mode": "100700"
  },
  "EFI/BOOT/grub/i386-efi/crypto.mod": {
    "hash": "4d24580182220c6235e2dc1c5e634ef51c21fd9c87c1c883bd44d051ea22bc1a",
    "mode": "100700"
  },
  "EFI/BOOT/grub/i386-efi/video_colors.mod": {
    "hash": "2d441230ba777c267a70f00f56028a8538b5e5389ca0e131834df007bdf4f2db",
    "mode": "100700"
  },
  "EFI/BOOT/grub/i386-efi/lvm.mod": {
    "hash": "9f233485da17a0d695da811cecbd6d48051f201f4c760ab5a1a4baf472fff83b",
    "mode": "100700"
  },
  "EFI/BOOT/grub/i386-efi/gfxterm.mod": {
    "hash": "fbe00855245de78b281200e56587f1b152fbfdf5704f5c59f4153d7c1850b0b1",
    "mode": "100700"
  },
  "EFI/BOOT/grub/i386-efi/file.mod": {
    "hash": "8b9b45e8daed055ef68021c52c0bce67d807b481acd87fd295e6e751b69dc049",
    "mode": "100700"
  },
  "EFI/BOOT/grub/i386-efi/reboot.mod": {
    "hash": "7b74da2ba78d08637ede6b19797180f6d0cac85ff92e6a1ffdb04d7b7a978697",
    "mode": "100700"
  },
  "EFI/BOOT/grub/i386-efi/terminfo.mod": {
    "hash": "efa89dcc03b84b3a1cec777d463468690b6c326cab18017a3410a8f702323445",
    "mode": "100700"
  },
  "EFI/BOOT/grub/i386-efi/video.lst": {
    "hash": "c1e522beadd3b37cad435d9ef6e955c5862d2964cc6534878ccff8c0a384dcc0",
    "mode": "100700"
  },
  "EFI/BOOT/grub/i386-efi/fshelp.mod": {
    "hash": "f08c2c6db3570482e9941739f18a7b55fa20d01f02d219e1ca2d3de4234ed48e",
    "mode": "100700"
  },
  "EFI/BOOT/grub/i386-efi/pcidump.mod": {
    "hash": "8ab66ed4ad3e22c0660d059e313af60f7b79b7258130565423849b73b1c63b3a",
    "mode": "100700"
  },
  "EFI/BOOT/grub/i386-efi/ata.mod": {
    "hash": "960e24074e3824e704164909b77a049d23baf697dbc66085a0de6968959f5a36",
    "mode": "100700"
  },
  "EFI/BOOT/grub/i386-efi/ntfscomp.mod": {
    "hash": "b9edd49834b5b00e408f3d5a517656bc8a07043ff623cd2e4340b3381991bf41",
    "mode": "100700"
  },
  "EFI/BOOT/grub/i386-efi/gcry_sha1.mod": {
    "hash": "deea7547187aa6be7501910a434e4a682d4ed69df24b38fee8d8390ed7516ab0",
    "mode": "100700"
  },
  "EFI/BOOT/grub/i386-efi/exfctest.mod": {
    "hash": "8cd6e9691ea2b6d9dafa36dfbf6f780819ee3649b6050ef1f36bacc27660ae6c",
    "mode": "100700"
  },
  "EFI/BOOT/grub/i386-efi/lsefi.mod": {
    "hash": "7fe7a54546ee7c643b742dc40367becde409f0dabd808da8121e476df9805a80",
    "mode": "100700"
  },
  "EFI/BOOT/grub/i386-efi/cbls.mod": {
    "hash": "8309a54928cad1c35d8099b38010cf80c05495d9c4ac7f9fc26dd76c89d6e699",
    "mode": "100700"
  },
  "EFI/BOOT/grub/i386-efi/bitmap.mod": {
    "hash": "7cb8e04a299072c7bbef0fe6dd2cd17760c9e09554a9ac3f05e3cc16e394f995",
    "mode": "100700"
  },
  "EFI/BOOT/grub/i386-efi/keystatus.mod": {
    "hash": "6bc05ab26ae9ea9f124c7cd0201765ac2e7ca2bdb81de25063b55a087a4989ed",
    "mode": "100700"
  },
  "EFI/BOOT/grub/i386-efi/date.mod": {
    "hash": "96dfcf61c5202d7e0ae644ce478754110566cb80a0e818f3ad83acbb43f022f0",
    "mode": "100700"
  },
  "EFI/BOOT/grub/i386-efi/gcry_serpent.mod": {
    "hash": "3867aa21d7dfcf0e9333a2c6db5b1821a386f88b93244c7c683ae13728eb5bfd",
    "mode": "100700"
  },
  "EFI/BOOT/grub/i386-efi/jfs.mod": {
    "hash": "95c0617ec2b1418ff649fcf5a6797a5b8391b87f382c8b9ff02bcee03eb1ff4a",
    "mode": "100700"
  },
  "EFI/BOOT/grub/i386-efi/hfs.mod": {
    "hash": "da02820aae7be2a49ebbf8b3b786f999b7fc40ce2e7025bb859495f8a87d3f09",
    "mode": "100700"
  },
  "EFI/BOOT/grub/i386-efi/part_dfly.mod": {
    "hash": "2168d4c297d5878a73e727e7cba916c80c5ddbf4a29790e531e996712d8bed21",
    "mode": "100700"
  },
  "EFI/BOOT/grub/i386-efi/gcry_blowfish.mod": {
    "hash": "20fc6fa188f433e86a4bdf7efb757941419b60fa02416ff2cde0b54ca7aa647d",
    "mode": "100700"
  },
  "EFI/BOOT/grub/i386-efi/part_sun.mod": {
    "hash": "1268b666fc80a63ce3bc0d3bfd30279c28db79bcac64b646f6729c73a3368c5b",
    "mode": "100700"
  },
  "EFI/BOOT/grub/i386-efi/ntfs.mod": {
    "hash": "a4ae6140c614faac1613891c2a78c34cced9eec6ba2c6528ddebe6b6b427d2f1",
    "mode": "100700"
  },
  "EFI/BOOT/grub/i386-efi/gcry_twofish.mod": {
    "hash": "88227d6b106f17e1b008f527f9c124dd906cf4a0c586131bbc675108cc83e9cb",
    "mode": "100700"
  },
  "EFI/BOOT/grub/i386-efi/gettext.mod": {
    "hash": "0c831bb497639c3c823e96a02613c7655366c2dbe456fd2d930184a3c53cd248",
    "mode": "100700"
  },
  "EFI/BOOT/grub/i386-efi/datehook.mod": {
    "hash": "07b267e29de8d226d0d88f54971e1f8beec4ae6722c18820fa463d84ef0c81d7",
    "mode": "100700"
  },
  "EFI/BOOT/grub/i386-efi/adler32.mod": {
    "hash": "161859ee34f81445b66bc3cc1f07bbaeda4f410af7d670bc35ff8da42e816fc0",
    "mode": "100700"
  },
  "EFI/BOOT/grub/i386-efi/newc.mod": {
    "hash": "087b42796e8ab3897bb0234bab395a3f6527e4257e8861081fbdf232456e7020",
    "mode": "100700"
  },
  "EFI/BOOT/grub/i386-efi/all_video.mod": {
    "hash": "08be6d97264f8a8f6212c51430e724d924b5c34a18a40ec74bdf1194dbd03b74",
    "mode": "100700"
  },
  "EFI/BOOT/grub/i386-efi/div_test.mod": {
    "hash": "84096782f5dc96c8c6f2b74aa03b2959ebfb9dab9fa733be0525e7affc77d49f",
    "mode": "100700"
  },
  "EFI/BOOT/grub/i386-efi/part_plan.mod": {
    "hash": "cfc2a0e683d7b54c44bc8f60ed87b762a3a6d861b8ee3ec17cb24ba8a6b8a854",
    "mode": "100700"
  },
  "EFI/BOOT/grub/i386-efi/hexdump.mod": {
    "hash": "121e7035fed378bccc2341d7ddbb6659205914138de90d9a2c6b140baf4bceaa",
    "mode": "100700"
  },
  "EFI/BOOT/grub/i386-efi/regexp.mod": {
    "hash": "377e83fa4ca1714aa573b199313742c359bc5ef5724cb7d9f94624260fab3300",
    "mode": "100700"
  },
  "EFI/BOOT/grub/i386-efi/part_amiga.mod": {
    "hash": "33581a2f7c6500a4956c0370f498e26e6fff63b4adf374e7e83cab9faf3e701f",
    "mode": "100700"
  },
  "EFI/BOOT/grub/i386-efi/zfscrypt.mod": {
    "hash": "378c8fab00561228b3e24902d383ab3f4e6d519bebce9166a44cafd1fdfa07ab",
    "mode": "100700"
  },
  "EFI/BOOT/grub/i386-efi/part_acorn.mod": {
    "hash": "a16943c90205afa1ec1fde41acd8adede2171f249263da5456f85597cc99fdf4",
    "mode": "100700"
  },
  "EFI/BOOT/grub/i386-efi/setjmp_test.mod": {
    "hash": "9351bacc1e999588003ce6917e4750e5b9b6ba2ae646680d87ec0df2230647fd",
    "mode": "100700"
  },
  "EFI/BOOT/grub/i386-efi/eval.mod": {
    "hash": "bdcee9480d16329d964f67cdd6174599a3fdc71e74bb38718c4a1da6c3f3d493",
    "mode": "100700"
  },
  "EFI/BOOT/grub/i386-efi/tga.mod": {
    "hash": "873caa00f9b03f0065a8f349d32feb40be5a6e02856b272fe02515a1b0233392",
    "mode": "100700"
  },
  "EFI/BOOT/grub/i386-efi/msdospart.mod": {
    "hash": "371da55e9f24cb278ddd83bfadb089700c4ec76d079a70ba15c89ec2b58d07c1",
    "mode": "100700"
  },
  "EFI/BOOT/grub/i386-efi/video_bochs.mod": {
    "hash": "96a0699094fa1f05dd3939c3f220b4bc89a6d7e542a109975dc842458d1e78f5",
    "mode": "100700"
  },
  "EFI/BOOT/grub/i386-efi/gcry_tiger.mod": {
    "hash": "b8639a1cbb136a68ca7a80cd45efd1e103489567a22154583017068007cdd7cc",
    "mode": "100700"
  },
  "EFI/BOOT/grub/i386-efi/usbserial_usbdebug.mod": {
    "hash": "9006410830370f6ef62ac6cedb40ffda4b1fa21163f582116146e784c6582b7d",
    "mode": "100700"
  },
  "EFI/BOOT/grub/i386-efi/cryptodisk.mod": {
    "hash": "c3b2966352f06721fe01287d8cbf06be9029adaf148961c339fce7a388237226",
    "mode": "100700"
  },
  "EFI/BOOT/grub/i386-efi/part_bsd.mod": {
    "hash": "d08dc29ad4d2dfef31f2fd87ce95db3753c10ee4b73dee0064477625415c915f",
    "mode": "100700"
  },
  "EFI/BOOT/grub/i386-efi/gcry_idea.mod": {
    "hash": "c5db043be4e7775288024a83ba750184500fa8b446d7dc5e920e8d60c134e903",
    "mode": "100700"
  },
  "EFI/BOOT/grub/i386-efi/cpio_be.mod": {
    "hash": "9ca9b4aa3a3f0b72b49b8985c8bf323ba1acbc8078489b13c460de7f378d51bb",
    "mode": "100700"
  },
  "live/Tails.module": {
    "hash": "8630846ce01fa917ff073a969fde37b5a4ca2f197f36d2fc9bea85607ac9a84d",
    "mode": "100700"
  }
}